POS,TIME,SPEED,BIB,NAME,AGE,GENDER,GENDERPOS
1,3:27:48,9.41,4012,Robert Dalton,31,Male,1
2,3:30:40,9.31,4064,Andrew Hannan ***,35,Male,2
3,3:31:19,9.29,4015,Ian Ellett,48,Male,3
4,3:38:04,9.06,4021,Tim Harpur ***,46,Male,4
5,3:38:40,9.04,4082,Tristan Shipsides ***46k,30,Male,5
6,3:39:01,9.03,4041,Andrew Nest,51,Male,6
7,3:42:49,8.91,4006,Peter Black ***,58,Male,7
8,3:43:51,8.88,4036,John Mckeown,46,Male,8
9,3:43:55,8.88,4054,Matt Thomas ***44k,41,Male,9
10,3:47:17,8.77,4047,Rick Patzold ***45k,48,Male,10
11,3:49:23,8.71,4083,Lucy Shipside,32,Female,1
12,3:50:02,8.69,4056,Michael Tregurtha ***46k,49,Male,11
13,3:50:08,8.69,4071,Ben Weinert,30,Male,12
14,3:54:40,8.55,4029,Timothy Kelly,40,Male,13
15,3:55:05,8.54,4007,Matt Callahan,0,Male,14
16,3:55:05,8.54,4068,Gerard Koelmeyer,0,Male,15
17,3:55:20,8.53,4077,Richards Susan,50,Female,2
18,3:55:52,8.52,4058,Mark Wenn,37,Male,16
19,3:56:41,8.49,4001,Kelly Anderson,41,Female,3
20,3:56:47,8.49,4014,Sandra Doyle ***,39,Female,4
21,3:57:11,8.48,4070,Brendan Walker,36,Male,17
22,3:57:36,8.47,4085,Peter Mahony,50,Male,18
23,3:59:10,8.42,4008,P C,34,Male,19
24,3:59:16,8.42,4025,Wayne Jessop,39,Male,20
25,4:00:16,8.39,4067,Natalie Heffernan,34,Female,5
26,4:00:17,8.39,4048,Michael Piper,37,Male,21
27,4:05:40,8.24,4075,Andrew Johnson ***46k,0,Male,22
28,4:05:40,8.24,4038,Margie Morrison,32,Female,6
29,4:06:04,8.23,4046,Tom Paton ***,36,Male,23
30,4:06:39,8.22,4005,Nicholas Bignell,60,Male,24
31,4:06:41,8.22,4034,Kathleen Mc Quaide-Little,48,Female,7
32,4:07:36,8.19,4020,James Grove,39,Male,25
33,4:09:43,8.14,4017,Robyn Fletcher,42,Female,8
34,4:11:08,8.1,4062,James Wicken ***46k,37,Male,26
35,4:11:11,8.1,4023,Richard Hewett,42,Male,27
36,4:12:51,8.05,4002,Kevin Barry,47,Male,28
37,4:14:00,8.03,4022,William Harvey,50,Male,29
38,4:15:26,7.99,4032,Chester Lennon,35,Male,30
39,4:23:49,7.78,4076,David Bendall,38,Male,31
40,4:24:50,7.76,4052,David Styles,63,Male,32
41,4:24:50,7.76,4079,John Dobson,61,Male,33
42,4:26:06,7.73,4019,Bradley Gray,42,Male,34
43,4:26:25,7.72,4016,Fraser Faithfull,53,Male,35
44,4:28:29,7.67,4033,Jarrod Mast,30,Male,36
45,4:28:34,7.67,4035,Daniel McBride,29,Male,37
46,4:28:48,7.66,4072,George Mihalakellis,35,Male,38
47,4:33:08,7.56,4081,Samantha Heyfron,39,Female,9
48,4:33:21,7.56,4044,Moses Otyek,41,Male,39
49,4:34:41,7.53,4073,Crystl Shiu,27,Female,10
50,4:37:24,7.47,4037,Paul McNamara,42,Male,40
51,4:39:31,7.42,4063,Steve Whelan,40,Male,41
52,4:39:31,7.42,4027,David Juggins,43,Male,42
53,4:40:06,7.41,4011,Malcolm Collins,47,Male,43
54,4:42:17,7.36,4055,Paul Todd,34,Male,44
55,4:42:50,7.35,4049,Jim Poussard,38,Male,45
56,4:50:57,7.18,4060,Peter Wheeldon,48,Male,46
57,4:51:01,7.18,4057,Paul Weekes,30,Male,47
58,4:52:27,7.15,4078,Peter Munns,0,Male,48
59,4:57:40,7.05,4066,Colin Brooks,59,Male,49
60,4:59:16,7.01,4080,Eliza Allan,40,Female,11
61,5:00:58,6.98,4018,Graham Gillespie,53,Male,50
62,5:03:21,6.94,4045,Joel Patching,30,Male,51
63,5:03:25,6.93,4053,Cheryl Symons,42,Female,12
64,5:04:33,6.91,4026,CAROL-ANNE JONES,48,Female,13
65,5:13:30,6.75,4028,Tom Kelly,22,Male,52
66,5:19:55,6.63,4010,Kerry Clapham,57,Male,53
67,5:27:15,6.51,4042,Barry O'Driscoll,34,Male,54
68,5:29:10,6.48,4009,Vele Civijovski,32,Male,55
69,5:33:36,6.4,4061,Pernille Woller,26,Female,14
70,5:33:36,6.4,4024,Hans Jørgen Jensen,52,Male,56
71,5:53:40,6.09,4065,Lindy Yap,0,Female,15
72,6:25:27,5.66,4059,Sue West,50,Female,16
