POS,BIB,TIME,NAME,GENDER,GENDERPOS
1,383,02:43:08,Ross Kinsella,Male,1
2,404,02:48:18,Simon Morcom,Male,2
3,363,02:52:01,Aaron Grigg,Male,3
4,344,02:56:22,Marcus Dunnett,Male,4
5,454,02:57:50,Stuart White,Male,5
6,407,02:59:31,Gary Noall,Male,6
7,428,03:00:22,Kieran Ryan,Male,7
8,332,03:04:29,Stuart Cox,Male,8
9,357,03:04:33,Peter Frayne,Male,9
10,382,03:05:14,Pat Kenny,Male,10
11,435,03:09:11,Glen Smith,Male,11
12,342,03:09:41,Glenn Drew,Male,12
13,426,03:09:44,Rebecca Rosel,Female,1
14,335,03:10:56,Robert Dalton,Male,13
15,378,03:12:55,Chris Joyce,Male,14
16,375,03:14:33,Michael Hynes,Male,15
17,343,03:14:42,Robert Dufour,Male,16
18,429,03:16:41,Claude Sampieri,Male,17
19,330,03:16:47,Jeremy Cowan,Male,18
20,434,03:17:16,Julian Skipworth,Male,19
21,308,03:19:20,Philip Barrett,Male,20
22,364,03:19:24,James Grove,Male,21
23,339,03:19:30,Grant Dewar,Male,22
24,441,03:22:51,Henrik Steenberg,Male,23
25,360,03:23:21,Ang Geard,Female,2
26,410,03:26:11,Tom Paton,Male,24
27,365,03:26:34,Justin Hamilton,Male,25
28,331,03:27:44,Alistair Cowan,Male,26
29,358,03:28:27,Chris Frohlich,Male,27
30,414,03:28:49,Anna Petrakos,Female,3
31,430,03:29:26,Dan Scanlon,Male,28
32,347,03:30:07,Shane Emanuelle,Male,29
33,456,03:32:29,Dave Williamson,Male,30
34,322,03:32:29,Jemima Chianta,Female,4
35,371,03:33:18,Gary Hubber,Male,31
36,417,03:34:39,Brian Proctor,Male,32
37,340,03:35:43,Billy Dimitriou,Male,33
38,398,03:37:01,Chantele Melchiori,Female,5
39,477,03:37:05,Adam Waites,Male,34
40,333,03:37:16,Nicholas Crooks,Male,35
41,337,03:38:29,Paul Day,Male,36
42,442,03:41:09,Wendy Stibbe,Female,6
43,355,03:41:19,Michelle Foran,Female,7
44,366,03:42:20,Cynthia Hanley,Female,8
45,460,03:43:02,Gareth Apsey,Male,37
46,319,03:43:19,Stuart Canavan,Male,38
47,397,03:43:33,Ross McGarvie,Male,39
48,311,03:43:40,Nicholas Blyth,Male,40
49,324,03:43:52,Liam Clark,Male,41
50,478,03:43:52,Joe Lewis,Male,42
51,406,03:45:31,Raa,Newcombe waaka,Male,43
52,450,03:46:25,Brendan Walker,Male,44
53,409,03:48:25,Dave Pasztaleniec,Male,45
54,472,03:49:53,Jon Gapes,Male,46
55,307,03:51:26,Katie Barnes,Female,9
56,325,03:52:17,Emily Clark,Female,10
57,389,03:55:54,Mitch Longe,Male,47
58,455,03:56:32,Alice Wilkinson,Female,11
59,387,03:56:35,Yoram Kulbak,Male,48
60,345,03:57:13,Kim Eadie,Female,12
61,384,03:58:16,Snezana Knight,Female,13
62,437,03:58:28,Kevin Sourgen,Male,49
63,446,03:58:31,Anthony Traynor,Male,50
64,328,03:58:49,Gary Cobbledick,Male,51
65,392,03:58:49,Jackie Males,Female,14
66,445,04:01:25,Gerard Thrall,Male,52
67,301,04:01:40,Craig Alford,Male,53
68,440,04:02:38,Lauren Starr,Female,15
69,452,04:03:16,Yvonne Webster,Female,16
70,314,04:03:20,Sharon Boyne,Female,17
71,421,04:03:46,Mark Rigby,Male,54
72,373,04:03:57,Martin Hunt,Male,55
73,443,04:04:04,Brian Sullivan,Male,56
74,312,04:06:18,Adrian Bortignon,Male,57
75,379,04:06:59,Stuart Keating,Male,58
76,411,04:07:58,Fiona Paul,Female,18
77,376,04:08:13,Richard Johnson,Male,59
78,439,04:08:30,John Stamatakos,Male,60
79,436,04:09:27,David Smythe,Male,61
80,354,04:11:08,Alison Foley,Female,19
81,424,04:13:32,Neil Roche,Male,62
82,402,04:15:32,Chris Miller,Male,63
83,321,04:16:30,Gary Cheong,Male,64
84,361,04:17:16,Andrew Gilette,Male,65
85,419,04:17:46,Mark Quinn,Male,66
86,351,04:19:36,Andrew Ferguson,Male,67
87,390,04:20:09,Joachim Lumbroso,Male,68
88,305,04:21:19,Michael Attrill,Male,69
89,449,04:21:31,Paul Walker,Male,70
90,422,04:21:52,Keleigh Jane Robinson,Female,20
91,348,04:22:46,Chris Fahey,Male,71
92,377,04:22:48,Michael Jones,Male,72
93,381,04:22:50,Kevin Kennedy,Male,73
94,425,04:23:05,Jane Rolfs,Female,21
95,432,04:23:56,Jason Sienkiewicz,Male,74
96,405,04:25:46,Liz Morgan,Female,22
97,395,04:28:54,Kate McAuliffe,Female,23
98,313,04:36:32,Robert Boyce,Male,75
99,442,04:41:09,Wendy Stibbe,Female,24
100,366,04:42:20,Cynthia Hanley,Female,25
101,353,04:42:27,Mike Fitzpatrick,Male,76
102,370,04:43:38,Rob Howarth,Male,77
103,368,04:48:18,Albin Hess,Male,78
104,341,04:50:55,Benjamin Dovile,Male,79
105,315,04:50:55,Damien Brinkies,Male,80
106,408,04:50:55,David Parker,Male,81
107,334,04:58:37,Alastair Cusack,Male,82
108,480,04:58:37,Edward Kift,Male,83
109,438,04:58:37,Michael Spillane,Male,84
110,418,04:58:37,Sophie Purcell,Female,26
111,447,04:58:37,Nadine Treister,Female,27
112,374,04:58:55,Dianne Johnson,Female,28
113,329,04:59:22,Anthony Costa,Male,85
114,459,04:59:22,Steven Zan,Male,86
115,385,05:06:25,Jason Koch,Male,87
116,318,05:06:25,Elise Burns,Female,29
117,367,05:21:24,Christopher Harris,Male,88
118,416,05:24:29,Troy Podhajski,Male,89
119,394,05:24:29,Andrea Markham,Female,30
120,427,05:26:57,David Rowe,Male,90
121,326,05:28:09,Gay Cleary,Female,31
122,453,05:37:28,Sue West,Female,32
123,415,05:37:28,Sally Piper,Female,33
124,369,06:26:42,Ian Hoad,Male,91
125,391,06:56:43,Robyn Madsen,Female,34
