POS,BIB,NAME,TIME,GENDER,GENDERPOS
1,439,Stephen DINNEEN,1:46:19,Male,1
2,5,Trent HARLOW,1:50:44,Male,2
3,770,Julian SPENCE,1:51:06,Male,3
4,512,Grant MORGAN,1:53:19,Male,4
5,514,Barry ROGERS,1:54:09,Male,5
6,621,Liam DELANY,1:55:21,Male,6
7,750,David VENOUR,1:57:51,Male,7
8,222,Chris WIGHT,1:58:49,Male,8
9,370,Andrew BAGNALL,2:00:03,Male,9
10,816,Steven WILLIAMS,2:04:09,Male,10
11,477,Damien ANGUS,2:05:11,Male,11
12,48,Chris CARR,2:05:21,Male,12
13,215,James ATKINSON,2:05:23,Male,13
14,492,Anthony MITHEN,2:05:41,Male,14
15,118,Claudio ABREU,2:06:00,Male,15
16,700,Connor CARSON,2:06:13,Male,16
17,162,Shaun MOONEY,2:06:51,Male,17
18,872,David HOWARD,2:06:57,Male,18
19,497,Stephen RENNICK,2:07:18,Male,19
20,243,Simon ANGUS,2:07:42,Male,20
21,470,Scott ARTUP,2:08:47,Male,21
22,238,David SWAN,2:09:02,Male,22
23,471,Dan ROBERTSON,2:09:15,Male,23
24,802,Shane MAINWARING,2:09:19,Male,24
25,2,Tracey AUSTIN,2:09:29,Female,1
26,596,Gary NOALL,2:09:37,Male,25
27,753,Kylie MURRAY,2:09:58,Female,2
28,898,Rebecca ROSEL,2:10:35,Female,3
29,435,Luke PEEL,2:11:08,Male,26
30,344,Adam COATES,2:12:10,Male,27
31,637,Stuart WHITE,2:12:22,Male,28
32,480,Cameron STAGGARD,2:12:37,Male,29
33,775,Paul MARSH,2:12:53,Male,30
34,599,Kieran SUTHERLAND,2:13:40,Male,31
35,371,Stuart PLACE,2:13:57,Male,32
36,368,Jason MCCRAE,2:13:57,Male,33
37,171,Greg MANDILE,2:14:12,Male,34
38,568,Paul WILLIAMS,2:14:25,Male,35
39,153,Michael NORDEN,2:14:28,Male,36
40,755,Kevin TORY,2:14:29,Male,37
41,781,Mark PURVIS,2:14:53,Male,38
42,140,Mark READ,2:15:01,Male,39
43,282,Elizabeth DORNOM,2:15:25,Female,4
44,669,Andy CALLAWAY,2:15:36,Male,40
45,223,John GUERIN,2:16:08,Male,41
46,67,Susan MICHELSSON,2:16:22,Female,5
47,452,Jason MONTFORT,2:16:39,Male,42
48,384,David BERTOVIC,2:17:11,Male,43
49,521,Matt PARKINSON,2:17:14,Male,44
50,264,Matthew POULTON,2:17:23,Male,45
51,447,Tony LANGELAAN,2:17:40,Male,46
52,730,Travis HALL,2:17:51,Male,47
53,681,Tony DINEEN,2:18:13,Male,48
54,538,Paul STOCKDALE,2:18:14,Male,49
55,209,Ian JONES,2:18:27,Male,50
56,555,Bryan ACKERLY,2:18:32,Male,51
57,636,Marcus COLEMAN,2:18:55,Male,52
58,287,Chris CANTOR,2:18:58,Male,53
59,579,Rohan ARMSTRONG,2:19:08,Male,54
60,609,Adam SAUNDERS,2:19:10,Male,55
61,87,Aidan RICH,2:19:14,Male,56
62,734,Andy VAN SLOBBE,2:19:17,Male,57
63,575,Chris WHITE,2:19:18,Male,58
64,460,Mark LEDWICH,2:19:20,Male,59
65,461,Fergus KOOCHEW,2:19:26,Male,60
66,105,Luke ISMAIL,2:19:30,Male,61
67,254,Michael THOMAS,2:19:43,Male,62
68,831,Mark COOPER,2:19:54,Male,63
69,758,Dale NARDELLA,2:19:58,Male,64
70,270,Michael KENNEDY,2:20:37,Male,65
71,908,Stuart COX,2:20:47,Male,66
72,655,Ernest LIM,2:20:53,Male,67
73,773,Stewart SHEFFIELD,2:21:00,Male,68
74,793,Alistair MCKAY,2:21:18,Male,69
75,850,Campbell SHEPPARD,2:21:35,Male,70
76,751,Garry MOSS,2:21:53,Male,71
77,293,Amy WALKER,2:21:58,Female,6
78,82,Brian JONES,2:22:10,Male,72
79,359,Phil JONES,2:22:24,Male,73
80,852,Aaron HAWKINS,2:22:38,Male,74
81,155,Ivan VAPTZAROV,2:22:45,Male,75
82,473,Peter MITCHELL,2:23:06,Male,76
83,280,Natalie GEDDES,2:23:12,Female,7
84,355,Allison JONES,2:23:14,Female,8
85,360,Scott MANSON,2:23:17,Male,77
86,748,Rob GILDERDALE,2:23:20,Male,78
87,333,Matthew CROUGH,2:23:35,Male,79
88,890,David STANFORD,2:23:53,Male,80
89,12,Simon GLENDENNING,2:24:15,Male,81
90,326,Tim DEVLIN,2:24:15,Male,82
91,638,Mark DUNCAN,2:24:16,Male,83
92,208,Andrew SUTHERLAND,2:24:17,Male,84
93,95,Dawn GOUMAS,2:24:29,Female,9
94,684,Garth CALDER,2:24:29,Male,85
95,523,John HOSKIN,2:24:31,Male,86
96,487,Paul WOOLARD,2:24:32,Male,87
97,771,Jason WILLIAMS,2:24:42,Male,88
98,615,Marc BRESSAN,2:24:44,Male,89
99,26,Ben CLARK,2:24:55,Male,90
100,225,Chris O'BRIEN,2:24:56,Male,91
101,218,Justin ZYLSTRA,2:24:59,Male,92
102,783,Barry WOODS,2:25:12,Male,93
103,193,Steve LEE,2:25:16,Male,94
104,565,Wright PATERSON,2:25:30,Male,95
105,414,David GRECH,2:26:04,Male,96
106,204,Rob DAVIS,2:26:35,Male,97
107,798,Stephen TREVASKIS,2:26:47,Male,98
108,623,Tim SCOTT,2:26:53,Male,99
109,507,Ross COCHRANE,2:26:55,Male,100
110,620,Michael MCNAMARA,2:27:10,Male,101
111,17,Kirsten JACKSON,2:27:19,Female,10
112,833,Richard WATKINS,2:27:24,Male,102
113,232,Bridget WETHERALL,2:28:07,Female,11
114,402,Aaron MUNDY,2:28:26,Male,103
115,902,Lincoln SMALLEY,2:28:35,Male,104
116,829,Rob WEIGALL,2:28:41,Male,105
117,843,Adam WILLIAMS,2:28:45,Male,106
118,281,Bernadette DORNOM,2:28:47,Female,12
119,834,Jon ELLIOTT,2:28:59,Male,107
120,588,Anton VAN HEERDEN,2:29:09,Male,108
121,437,Emmet CONDON,2:29:23,Male,109
122,307,Bethea FREGON,2:29:24,Female,13
123,817,Matthew HESKIN,2:29:41,Male,110
124,380,David LAU,2:29:51,Male,111
125,203,Emma THOMPSON,2:29:57,Female,14
126,213,Michael RYAN,2:30:01,Male,112
127,821,Patrick BOWRING,2:30:27,Male,113
128,145,Mark BROWN,2:30:27,Male,114
129,582,Jeremy COOMBE,2:30:30,Male,115
130,489,Freya POYNTON,2:30:32,Female,15
131,52,Tim BURTON,2:30:34,Male,116
132,249,Andrew ROBERTSON,2:30:41,Male,117
133,717,Jeffrey SMITH,2:30:47,Male,118
134,151,Adrian ELLIOT-SMITH,2:30:49,Male,119
135,320,George ECCLES,2:31:07,Male,120
136,841,James RICHARDS,2:31:11,Male,121
137,827,Fiona MACMILLAN,2:31:13,Female,16
138,476,Peter COLLIER,2:31:23,Male,122
139,64,Jon STRACHAN,2:31:33,Male,123
140,124,Richard CRANE,2:32:04,Male,124
141,398,Paul DALTON,2:32:17,Male,125
142,671,Adrian LYNCH,2:32:31,Male,126
143,796,Craig QUILTY,2:32:39,Male,127
144,501,Tom PATON,2:32:42,Male,128
145,340,John BRADBURY,2:33:01,Male,129
146,286,Peter JORDAN,2:33:14,Male,130
147,589,Mike HONEYMAN,2:33:16,Male,131
148,481,Andrew FERGUSON,2:33:27,Male,132
149,614,Jason MAHON,2:33:36,Male,133
150,426,Anna FRANCIS,2:33:42,Female,17
151,826,Dianne ASTWOOD,2:34:10,Female,18
152,315,Sara STEEN,2:34:14,Female,19
153,440,Phil LEMIEUX,2:34:25,Male,134
154,23,Renee BYERS,2:34:47,Female,20
155,915,Joseph TA,2:34:49,Male,135
156,136,Gerard KOELMEYER,2:35:07,Male,136
157,662,Tim GODDARD,2:35:11,Male,137
158,484,Sarah HUGHES,2:35:12,Female,21
159,772,Nigel ANDERSON,2:35:18,Male,138
160,522,Jarryd PALSER,2:35:21,Male,139
161,318,Brian PAGE,2:35:24,Male,140
162,338,Jeff SMALE,2:35:32,Male,141
163,30,Geoffrey RUMBLE,2:35:33,Male,142
164,115,Cameron WHITE,2:35:37,Male,143
165,866,Nina MCCORMICK,2:35:43,Female,22
166,759,Steve MARTIN,2:35:43,Male,144
167,383,John DIXON,2:35:53,Male,145
168,901,Phil MAGEE,2:36:04,Male,146
169,598,Sandra DOYLE,2:36:28,Female,23
170,767,Mitch HODGSON,2:36:43,Male,147
171,558,Mark HARPER,2:36:52,Male,148
172,511,Richard MATISON,2:37:05,Male,149
173,540,Anthony HEATH,2:37:17,Male,150
174,768,Brendon DRAIN,2:37:21,Male,151
175,327,Norm MCCANN,2:37:35,Male,152
176,647,Dave WILLIAMSON,2:37:37,Male,153
177,539,Sam HICKINGBOTHAM,2:37:43,Male,154
178,619,Paul O'SHEA,2:37:58,Male,155
179,780,John MURPHY,2:38:02,Male,156
180,277,Lachie FINN,2:38:04,Male,157
181,15,Jessica GRAY,2:38:08,Female,24
182,342,Carey ARTHURSON,2:38:12,Male,158
183,20,Kristen HARRIS,2:38:22,Male,159
184,835,Wayne HEPENSTALL,2:38:27,Male,160
185,348,Olivier CAIRE,2:38:28,Male,161
186,144,Luke COOLING,2:38:30,Male,162
187,381,Russell DOVISON,2:38:39,Male,163
188,909,Aldonio FERREIRA,2:38:41,Male,164
189,416,Genevieve CHAMBERS,2:38:41,Female,25
190,819,Scott DAWKINS,2:38:48,Male,165
191,160,Adam FENTON,2:38:49,Male,166
192,420,Yvonne WEBSTER,2:38:49,Female,26
193,37,Tom NEBL,2:38:51,Male,167
194,411,Peter BROCKINGTON,2:38:56,Male,168
195,903,Matthew MARTYN-JONES,2:39:15,Male,169
196,763,Bianca MUNDY,2:39:15,Female,27
197,883,Chris BROADHURST,2:39:23,Male,170
198,101,Sarah DE WOLF,2:39:31,Female,28
199,629,Andrew KING,2:39:41,Male,171
200,694,Edward KIFT,2:39:43,Male,172
201,693,Michael SPILLANE,2:39:43,Male,173
202,114,Annmarie DARCY-GARBELLINI,2:39:57,Female,29
203,688,Sonny PALMER,2:40:10,Male,174
204,401,Jess CREASEY,2:40:13,Female,30
205,634,Ron SCHOLES,2:40:16,Male,175
206,33,Luke MCMAHON,2:40:20,Male,176
207,38,Robert MILLINGTON,2:40:24,Male,177
208,570,Nicki MACFARLANE,2:40:32,Female,31
209,421,Paul VOSTI,2:40:32,Male,178
210,552,Martin NEWNHAM,2:40:41,Male,179
211,361,Peter MCCARTNEY,2:40:42,Male,180
212,431,Josie SALAHORAS,2:40:46,Female,32
213,524,Cheryl CHARILAOU-UNG,2:41:03,Female,33
214,441,Richard MOLLOY,2:41:07,Male,181
215,195,Craig HOPKINS,2:41:18,Male,182
216,385,Gary COBBLEDICK,2:41:26,Male,183
217,876,Danny EDMUNDS,2:41:29,Male,184
218,59,Luke BRADY,2:41:29,Male,185
219,708,Rick OSLER,2:41:32,Male,186
220,784,Travis FORBES,2:41:33,Male,187
221,739,Warren BULL,2:41:34,Male,188
222,815,Tony NESTOLA,2:41:38,Male,189
223,187,Darren PEMBERTON,2:41:41,Male,190
224,269,Anna KLOVDAHL,2:41:53,Female,34
225,530,Daniel INGRAM,2:41:58,Male,191
226,644,Aaron HARVEY,2:42:13,Male,192
227,122,Angela BROWN,2:42:30,Female,35
228,314,John BOHM,2:42:39,Male,193
229,786,Trevor MURRAY,2:42:48,Male,194
230,161,Michelle KEOGH,2:42:53,Female,36
231,335,Michael ATKINS,2:42:55,Male,195
232,777,Jarrod ABBOTT,2:43:10,Male,196
233,271,Andrew VAN LEEUWEN,2:43:12,Male,197
234,906,Clinton PAFFETT,2:43:20,Male,198
235,630,James TOTH,2:43:26,Male,199
236,279,Russell WEAVERS,2:43:28,Male,200
237,560,Anita HUMMER,2:43:29,Female,37
238,869,Erin HUNT,2:43:30,Female,38
239,214,Tessa HINDS,2:43:37,Female,39
240,743,Andre VAN DER WESTHUIZEN,2:43:49,Male,201
241,493,Corey LAWSON,2:43:55,Male,202
242,887,Scott ONEILE,2:43:56,Male,203
243,842,Nick WINBANKS,2:43:56,Male,204
244,907,Anna PETRAKOS,2:43:56,Female,40
245,851,Claudia SWIFT,2:43:57,Female,41
246,812,Gerry SHERIDAN,2:44:11,Male,205
247,194,Shanon WILLIAMS,2:44:15,Male,206
248,46,Dean JACKSON,2:44:20,Male,207
249,548,Richard HEWETT,2:44:26,Male,208
250,422,Rebecca ROGERS,2:44:31,Female,42
251,613,Rachel BALDING,2:44:40,Female,43
252,317,Matthew WATTS,2:44:59,Male,209
253,34,Stuart HUGHES,2:45:03,Male,210
254,513,David JOHNSON,2:45:05,Male,211
255,854,Leah WISEMAN,2:45:06,Female,44
256,367,Belinda ALLISON,2:45:16,Female,45
257,608,David HUGHES,2:45:23,Male,212
258,886,Charles CAMERON,2:45:26,Male,213
259,413,Tenille ROTH,2:45:27,Female,46
260,13,Rebecca HOWE,2:45:34,Female,47
261,674,Gerard FAUVERELLE,2:45:35,Male,214
262,668,Peter MITCHELL,2:45:46,Male,215
263,123,Mark FOLEY,2:45:53,Male,216
264,838,Damian LYNCH,2:46:04,Male,217
265,889,Anthony COWAN,2:46:05,Male,218
266,245,Christiana KING,2:46:15,Female,48
267,430,Alan DONALDSON,2:46:15,Male,219
268,633,Dion TAYLOR,2:46:22,Male,220
269,689,Noeleen O'SHEA,2:46:27,Female,49
270,417,Chris BURNETT,2:46:28,Male,221
271,918,Tracy MORRISON,2:46:29,Female,50
272,824,Sarah FOSS,2:46:30,Female,51
273,132,Sharon HANNA,2:46:33,Female,52
274,666,Robert CASAURIA,2:46:35,Male,222
275,166,Nick CIMDINS,2:46:41,Male,223
276,272,Jim MACARTHUR,2:46:46,Male,224
277,744,Scott WILLIAMS,2:46:48,Male,225
278,444,Justin MERCER,2:46:51,Male,226
279,27,Joe CARMODY,2:47:08,Male,227
280,121,Jane WHITE,2:47:14,Female,53
281,896,Adrian CATALANO,2:47:14,Male,228
282,451,Brett FORD,2:47:19,Male,229
283,720,Graham SALTER,2:47:21,Male,230
284,583,Patrick HERFT,2:47:25,Male,231
285,653,Barry ROSENBERG,2:47:28,Male,232
286,912,Amanda MCLACHLAN,2:47:33,Female,54
287,81,Cameron YATES,2:47:33,Male,233
288,390,Danny ZORZI,2:47:35,Male,234
289,718,Jay BARTLE,2:47:50,Male,235
290,572,Andrea VALVO,2:47:55,Female,55
291,547,Richard AMON,2:48:08,Male,236
292,485,Paul O'BRIEN,2:48:33,Male,237
293,724,Andrew PHILP,2:48:33,Male,238
294,870,Ryan BARNETT,2:48:34,Male,239
295,808,Lachlan MARSHALL,2:48:38,Male,240
296,130,David GRACIE,2:48:40,Male,241
297,309,John SIGNORINI,2:48:40,Male,242
298,179,Chris PEDIC,2:48:46,Male,243
299,603,Emma FRANCIS,2:48:56,Female,56
300,640,Luke KASPERCZYK,2:48:57,Male,244
301,639,Gateth BRIGLIA,2:48:59,Male,245
302,442,Rohan STEWART,2:49:05,Male,246
303,242,Steven MARTIN,2:49:29,Male,247
304,73,Ben KACZYNSKI,2:49:32,Male,248
305,19,Mark ANDERSON,2:49:50,Male,249
306,275,Jane KANIZAY,2:50:12,Female,57
307,44,Jenny METCALF,2:50:12,Female,58
308,168,Lyndall HILLBRICH,2:50:12,Female,59
309,109,Neil MATHEWS,2:50:19,Male,250
310,221,Michael DESMOND,2:50:21,Male,251
311,686,Philip LAMONT,2:50:28,Male,252
312,525,Adam WAITES,2:50:36,Male,253
313,526,Marc D'UNIENVILLE,2:50:37,Male,254
314,230,Daniel MOYLAN,2:50:47,Male,255
315,529,Sally LITTLEWOOD,2:50:49,Female,60
316,601,Tara BRESSAN,2:50:51,Female,61
317,175,Miles BRENNAN,2:50:52,Male,256
318,462,Johnny HORROCKS,2:51:05,Male,257
319,594,Jane SHADBOLT,2:51:16,Female,62
320,537,Libby NIXON,2:51:49,Female,63
321,428,Tony DUNSTAN,2:51:51,Male,258
322,714,Andrew ROBERTS,2:51:51,Male,259
323,534,Geoff LEACH,2:52:07,Male,260
324,265,Dominique DE ROOIJ,2:52:07,Male,261
325,400,Nigel MCINTOSH,2:52:17,Male,262
326,343,Pia HUNTER,2:52:27,Female,64
327,176,Ben WATERHOUSE,2:52:30,Male,263
328,94,Sherrine WHITE,2:52:31,Female,65
329,904,Magnus NEERGAARD,2:52:34,Male,264
330,863,Heidi POOLE,2:52:39,Female,66
331,196,Richard SPRY,2:52:42,Male,265
332,564,Shaune EGAN,2:52:45,Male,266
333,363,Anthony COMITO,2:52:53,Male,267
334,704,Dean NIBALI,2:52:53,Male,268
335,292,Evan MILLER,2:53:08,Male,269
336,301,Kane HITCHINER,2:53:15,Male,270
337,584,Ray FULTON,2:53:15,Male,271
338,571,Patricia BOWMER,2:53:33,Female,67
339,754,Lisa DOMMISSE,2:53:33,Female,68
340,126,David ROWE,2:53:39,Male,272
341,278,Thomas ORMEROD,2:53:40,Male,273
342,483,Kym COUTTS,2:53:49,Male,274
343,107,Natalie ROCHE,2:53:50,Female,69
344,256,Jo-Anne IKIN,2:53:53,Female,70
345,328,Roger SIMKIN,2:54:30,Male,275
346,656,Sally LIM,2:54:40,Female,71
347,174,Brian PROCTOR,2:54:47,Male,276
348,42,Andrew GRAY,2:55:02,Male,277
349,602,Jy PERTZEL,2:55:10,Male,278
350,910,Chris WATKINS,2:55:12,Male,279
351,235,Paul MARTIN,2:55:25,Male,280
352,860,Gary ZEUSCHNER,2:55:28,Male,281
353,516,Steven GENTILE,2:55:32,Male,282
354,453,William DAY,2:55:40,Male,283
355,719,Adam SMITH,2:55:41,Male,284
356,580,David BUDGE,2:55:43,Male,285
357,875,Victoria PETTIT,2:55:44,Female,72
358,874,Anna BROWN,2:55:44,Female,73
359,85,Mark POWELL,2:55:47,Male,286
360,604,Dan BARKER,2:55:51,Male,287
361,458,Raj SAMRAI,2:55:52,Male,288
362,71,Andrea JACKSON,2:55:58,Female,74
363,551,Susan ELSDON,2:55:58,Female,75
364,794,Ashley LOFTON,2:56:02,Female,76
365,795,Andrew SMITH,2:56:02,Male,289
366,660,Brendan WRAY,2:56:22,Male,290
367,112,Ross APOSTOLOV,2:56:28,Male,291
368,446,Aaron LEEMAN-SMITH,2:56:28,Male,292
369,672,Raymond MUNDY,2:56:32,Male,293
370,423,Debra NEIL,2:56:40,Female,77
371,211,Warwick DAVIS,2:56:42,Male,294
372,298,Barb EASTWOOD,2:56:54,Female,78
373,349,Jaime METCALFE-CAIRE,2:57:10,Female,79
374,733,Kevin BARRY,2:57:10,Male,295
375,351,Rohan EDMONDS-WILSON,2:57:10,Male,296
376,456,James SKETCHLEY,2:57:28,Male,297
377,324,Kim WEN,2:57:30,Female,80
378,139,Gregory ROBERTS,2:57:43,Male,298
379,741,Christine KEERS,2:57:51,Female,81
380,455,Alexis SKETCHLEY,2:57:53,Female,82
381,90,Anisha MISTRY,2:58:01,Female,83
382,322,Paul REARDON,2:58:03,Male,299
383,321,Alistair WARD,2:58:03,Male,300
384,894,Joachim LUMBROSO,2:58:10,Male,301
385,354,Anna CLARK,2:58:12,Female,84
386,545,Doug GORDON,2:58:16,Male,302
387,546,Mariza SCHEEPERS,2:58:16,Female,85
388,732,Jutta SCHMITZ,2:58:30,Female,86
389,448,Sylvana MITCHELL,2:58:33,Female,87
390,491,Christian DAY,2:58:35,Male,303
391,591,Mike CARTER,2:58:36,Male,304
392,803,Hamish GARDINER,2:58:39,Male,305
393,698,Ian BRABY,2:58:51,Male,306
394,98,David BENNETT,2:58:51,Male,307
395,128,Rohan DOWD,2:58:57,Male,308
396,679,Kristian BAIN,2:59:10,Male,309
397,813,Ryan EVERETT,2:59:14,Male,310
398,353,Zane JENKINS,2:59:14,Male,311
399,210,Rachael DUNNE,2:59:15,Female,88
400,658,Deb CUST,2:59:16,Female,89
401,50,David ADAMS,2:59:26,Male,312
402,158,Andrew BROADHURST,2:59:36,Male,313
403,200,Sue KLEIN,2:59:36,Female,90
404,593,Kellie HICKS,2:59:52,Female,91
405,745,Karen TSEBELIS,2:59:53,Female,92
406,864,Jamie ALLEN,3:00:05,Male,314
407,427,Nicole PLAYER,3:00:10,Female,93
408,258,David NICHOLSON,3:00:11,Male,315
409,706,Ben SAMUEL,3:00:11,Male,316
410,541,Nicci HUTCHINSON,3:00:18,Female,94
411,103,Diane MURRAY,3:00:26,Female,95
412,544,Simon BUCKLEY,3:00:32,Male,317
413,234,Sharon WETHERALL,3:00:33,Female,96
414,625,Ben MARTIN,3:00:51,Male,318
415,840,Frank DI PIERRO,3:00:58,Male,319
416,709,Rod CRANE,3:01:03,Male,320
417,133,Stewart LOCKIE,3:01:27,Male,321
418,410,Sonia BROCKINGTON,3:01:44,Female,97
419,756,Daniel SPRAGUE,3:01:47,Male,322
420,117,Fran PLUNKETT,3:02:06,Female,98
421,220,Kath DIDIER,3:02:06,Female,99
422,892,Grace BAILEY,3:02:13,Female,100
423,535,Rachel CLARK,3:02:14,Female,101
424,645,Manish NARAYANAN,3:02:27,Male,323
425,224,Alan HERRITY,3:02:36,Male,324
426,76,Wayne DIVINCENZO,3:02:39,Male,325
427,257,Jim MOYLAN,3:02:48,Male,326
428,847,Joyce CHAN,3:02:49,Female,102
429,712,James HUTCHINSON,3:03:28,Male,327
430,635,Norman FRANZI,3:03:29,Male,328
431,818,Gareth BURNETT,3:03:38,Male,329
432,62,Bruce HARTLEY,3:03:39,Male,330
433,364,Paul STEWART,3:03:41,Male,331
434,888,Clancy MALCOLM,3:03:49,Male,332
435,542,Joan MARKWELL,3:03:54,Female,103
436,631,Sharyn HUNTER,3:04:30,Female,104
437,776,Brett SINCLAIR,3:04:43,Male,333
438,260,Greg BERTI,3:04:43,Male,334
439,581,Ruby RICHARDSON,3:04:51,Female,105
440,550,Owen DAVIES,3:04:57,Male,335
441,676,Alex CRAWFORD,3:05:03,Male,336
442,61,Melissa CARMODY,3:05:05,Female,106
443,261,Caroline HOWARD,3:05:18,Female,107
444,259,Danielle KEECH,3:05:18,Female,108
445,135,Joseph CIBERLIN,3:05:27,Male,337
446,651,Phillip HEALEY,3:05:28,Male,338
447,531,Andrea WILSON,3:05:39,Female,109
448,725,Shanley MCBURNEY,3:05:45,Female,110
449,274,Philippa VAN LEEUWEN,3:05:50,Female,111
450,820,Jennifer TURNER,3:06:11,Female,112
451,352,Travis STONE,3:06:12,Male,339
452,369,Trevor SMITH,3:06:16,Male,340
453,687,Barbara HORWOOD,3:06:17,Female,113
454,592,Neil WOODS,3:06:21,Male,341
455,533,Kelly ANDERSON,3:06:23,Female,114
456,899,Benjamin LALOR,3:06:27,Male,342
457,308,Helen BALLARD,3:06:45,Female,115
458,403,Phil MUNSON,3:06:46,Male,343
459,559,Amelia FAULKNER,3:06:50,Female,116
460,146,Karen HATHAWAY,3:06:50,Female,117
461,882,Maria KOWALCZYK,3:07:00,Female,118
462,695,Alan GREEN,3:07:03,Male,344
463,449,Stephanie BULLOCK,3:07:06,Female,119
464,723,Cynthia HANLEY,3:07:07,Female,120
465,911,Tom WRIGHT,3:07:11,Male,345
466,311,Michael KENNEDY,3:07:12,Male,346
467,683,Neil THORPE,3:07:23,Male,347
468,241,Warwick BISHOP,3:07:53,Male,348
469,11,Luke CUNNINGHAM,3:07:53,Male,349
470,764,Carl LUKE,3:08:05,Male,350
471,804,Kyle SCOTT,3:08:09,Male,351
472,306,Rory NELSON,3:08:22,Male,352
473,237,Ian HARE,3:08:30,Male,353
474,611,Sarah LUDLOW,3:08:32,Female,121
475,765,Justin HALL,3:08:36,Male,354
476,445,John WEATHERLAKE,3:08:46,Male,355
477,667,Daniel NORTON,3:08:52,Male,356
478,677,Bruce PRESTON,3:08:53,Male,357
479,822,Justin MCCARTNEY,3:08:58,Male,358
480,774,Keith MCKENRY,3:09:22,Male,359
481,164,Scott LEDWIDGE,3:09:45,Male,360
482,659,Andrew OLOUGHLIN,3:09:47,Male,361
483,65,Ruth PATTON,3:09:53,Female,122
484,72,Kim TREZISE,3:09:53,Female,123
485,336,Kim PARROTT,3:09:57,Female,124
486,856,Kristan PETERS,3:10:01,Male,362
487,191,Andrew BAXTER,3:10:02,Male,363
488,186,Paul GIRT,3:10:35,Male,364
489,376,Kerri JEWELL,3:10:45,Female,125
490,382,Leigh REYNOLDS,3:10:48,Male,365
491,443,Teresa LIU,3:10:49,Female,126
492,169,Paul MORAN,3:10:51,Male,366
493,262,Dina WATTERSON,3:10:54,Female,127
494,561,Rebecca HALEY,3:11:05,Female,128
495,836,Brenton LYNCH,3:11:06,Male,367
496,350,Wendy STIBBE,3:11:28,Female,129
497,857,Pip DAVIES,3:11:34,Female,130
498,405,Kate BAUDINETTE,3:11:35,Female,131
499,877,Andrew ASHCROFT,3:11:36,Male,368
500,263,Melinda DOBBYN,3:11:37,Female,132
501,646,Chee Kian Kenneth LOW,3:11:38,Male,369
502,735,Shannon PRICE,3:11:40,Female,133
503,303,Craig CHURCHILL,3:11:44,Male,370
504,36,Chris MILLER,3:11:51,Male,371
505,858,Victor PAK,3:11:52,Male,372
506,304,Vicki MILLS,3:12:03,Female,134
507,347,Mark QUINN,3:12:11,Male,373
508,515,Vanessa ATTARD,3:12:36,Female,135
509,859,James NOONAN,3:12:40,Male,374
510,654,Philip PATON,3:12:53,Male,375
511,472,Paul JOY,3:12:59,Male,376
512,916,Peter SHEPARD,3:12:59,Male,377
513,885,Cameron GOSLING,3:13:01,Male,378
514,884,Penny GOSLING,3:13:02,Female,136
515,557,Libby BRENNAN,3:13:20,Female,137
516,190,Cerina MEREDITH,3:13:26,Female,138
517,479,Ash CROOK,3:13:27,Male,379
518,418,Stephen REID,3:13:34,Male,380
519,917,Cameron WILLIAMS,3:13:35,Male,381
520,450,Dave REES,3:13:44,Male,382
521,811,Danielle PEPPING,3:14:22,Female,139
522,805,Natalie PEPPING,3:14:22,Female,140
523,801,Lidia SCOTTO DI VETTA,3:14:25,Female,141
524,89,Ron BENNETT,3:14:26,Male,383
525,517,Rebecca MYER,3:14:41,Female,142
526,862,Sarah RIEGELHUTH,3:14:45,Female,143
527,696,Carol WARDEN,3:14:51,Female,144
528,697,Doug WARDEN,3:14:52,Male,384
529,55,Kerrie O'CONNELL,3:14:54,Female,145
530,288,Jacky O'SULLIVAN,3:15:03,Female,146
531,509,Naomi HENDERSON,3:15:04,Female,147
532,378,Rebecca MORPHETT,3:15:04,Female,148
533,752,Dean FERGIE,3:15:20,Male,385
534,419,Tara MARTIN,3:15:31,Female,149
535,58,Russell KING,3:15:45,Male,386
536,468,Lyn THOMPSON,3:15:50,Female,150
537,250,Kristann WINFORD,3:15:56,Male,387
538,879,Rosie MILLS,3:16:03,Female,151
539,825,Belinda GRIFFITHS,3:16:05,Female,152
540,785,Danni WEBB,3:16:23,Female,153
541,205,Peter CASEY,3:16:23,Male,388
542,199,Karla MCDONALD,3:16:29,Female,154
543,685,Diane CLEMENTSON,3:16:50,Female,155
544,366,Courtney RATTLE,3:17:00,Female,156
545,844,Kelly LINAKER,3:17:01,Female,157
546,180,Andrew SEMPLE,3:17:02,Male,389
547,97,Anna DE ARAUGO,3:17:05,Female,158
548,585,Lisa HUNTER,3:17:06,Female,159
549,39,Kathy SOUTER,3:17:08,Female,160
550,100,Julie MOORE,3:17:12,Female,161
551,197,Samantha DEWHURST,3:17:12,Female,162
552,391,Jane ROLFS,3:17:16,Female,163
553,91,Daria KURTOV,3:17:17,Female,164
554,40,Rod MCLENNAN,3:17:17,Male,390
555,163,Lee CHICAS,3:17:20,Female,165
556,806,Anja AHALE,3:17:33,Female,166
557,228,James POYNTON,3:18:00,Male,391
558,587,Lisa BOOKER,3:18:06,Female,167
559,616,Hanh NGUYEN,3:18:56,Female,168
560,88,Nigel FOX,3:18:57,Male,392
561,891,James CURTIN,3:19:16,Male,393
562,729,James VICKERY,3:19:17,Male,394
563,731,Megan TODD,3:19:18,Female,169
564,520,Lisa RACHELE,3:19:26,Female,170
565,206,John WALL,3:19:53,Male,395
566,506,Tonya NICHOLLS,3:20:07,Female,171
567,577,Courtney WHEELER,3:20:11,Female,172
568,399,David BARKER,3:20:12,Male,396
569,853,Marco SANSOE,3:20:24,Male,397
570,212,Claire REGAN,3:20:34,Female,173
571,880,Jim CARTER,3:21:08,Male,398
572,881,Pamela CARTER,3:21:08,Female,174
573,878,Elizabeth ADAMS,3:21:08,Female,175
574,43,John FOX,3:21:28,Male,399
575,463,Heidi VESPER,3:21:34,Female,176
576,528,Sarah WARNER,3:21:41,Female,177
577,28,Arthur TZIALIS,3:21:55,Male,400
578,283,Marcus DENNY,3:21:56,Male,401
579,267,Jane GIBBONS,3:21:56,Female,178
580,86,Greg MCCANN,3:22:04,Male,402
581,201,Stuart NICOL,3:22:07,Male,403
582,134,Laura LAUNONEN,3:22:10,Female,179
583,861,Damien HARDSTONE,3:22:10,Male,404
584,553,Helen TIPLADY,3:22:23,Female,180
585,554,Ed TIPLADY,3:22:23,Male,405
586,35,Kim ESSEX,3:22:59,Female,181
587,790,Harriet FERGUSON,3:23:02,Female,182
588,789,Andrew FERGUSON,3:23:02,Male,406
589,138,Marie Stephanie MAZZAFERRO,3:23:05,Female,183
590,334,Diana FUSTER,3:23:06,Female,184
591,110,Darryl GIULIERI,3:24:06,Male,407
592,913,Mark LAU,3:24:07,Male,408
593,641,Paul FOWLER,3:24:09,Male,409
594,586,Ben INGHAM,3:24:17,Male,410
595,331,Ben PEARCE,3:24:36,Male,411
596,29,Bronwyn NEAL,3:24:45,Female,185
597,573,Matt WALTON,3:24:48,Male,412
598,357,Craig WILLIAMS,3:24:48,Male,413
599,425,Jim CASTLES,3:24:57,Male,414
600,433,Laura GORDON,3:24:59,Female,186
601,432,David PORTER,3:24:59,Male,415
602,434,Nick PORTER,3:25:00,Male,416
603,627,Paul BAN,3:25:06,Male,417
604,663,Heather MONKS,3:25:08,Female,187
605,664,Mark GANDY,3:25:08,Male,418
606,219,Kate BLANCO,3:25:10,Female,188
607,503,Aleisha LEONARD,3:25:14,Female,189
608,502,Harriet RADERMACHER,3:25:14,Female,190
609,459,Lara AUSTIN,3:25:16,Female,191
610,905,Trent MALCOLM,3:25:20,Male,419
611,800,John BAUER,3:25:20,Male,420
612,809,Jacqueline BRANSGROVE,3:25:37,Female,192
613,543,Laura FOLEY,3:25:54,Female,193
614,747,Laura BRAMLEY,3:26:21,Female,194
615,505,Alison CARLIN,3:26:53,Female,195
616,346,Guyonne KALB,3:27:13,Female,196
617,31,Chris FAHEY,3:27:38,Male,421
618,532,Ian PALMER,3:27:48,Male,422
619,60,Oliver MESTDAGH,3:28:05,Male,423
620,83,Jason CAMERON,3:28:06,Male,424
621,757,Cynthia VASSILIOU,3:28:15,Female,197
622,149,Tracey SETTER,3:28:20,Female,198
623,127,Caroline SCOTT,3:28:20,Female,199
624,96,Julian SKIPWORTH,3:28:27,Male,425
625,643,Tania CARRIGG,3:28:27,Female,200
626,830,Claire KOWARSKY,3:28:28,Female,201
627,828,Teri LICHTENSTEIN,3:28:35,Female,202
628,202,Kylie BRIDGES,3:28:58,Female,203
629,868,Dianne DEBLASSY,3:29:02,Female,204
630,406,Kate SMITH,3:29:34,Female,205
631,496,Allison LITTLE,3:29:57,Female,206
632,231,Monika MOYLAN,3:30:18,Female,207
633,276,Therese HUMPHRYS,3:30:57,Female,208
634,488,Steven DAVIES,3:31:17,Male,426
635,1000,Kevin CASSIDY,3:31:31,Male,427
636,711,Megan THOMAS,3:31:39,Female,209
637,746,Nick TSEBELIS,3:31:50,Male,428
638,284,Ellen LAVOIE,3:31:55,Female,210
639,247,Cara ALPHEY,3:32:04,Female,211
640,248,Kris OCKWELL,3:32:19,Male,429
641,475,Erik HAMILTON,3:32:42,Male,430
642,474,Jess HAMILTON,3:32:43,Female,212
643,665,Sophie MCLERNON,3:32:52,Female,213
644,409,Fiona WATSON,3:33:50,Female,214
645,185,Matthew PETERS,3:34:02,Male,431
646,266,Carolyn LIGHTFOOT,3:34:05,Female,215
647,395,Gavin MORTON,3:34:05,Male,432
648,606,Stacey MORRISON,3:34:06,Female,216
649,312,Kath THOMAS,3:34:09,Female,217
650,313,Lee-Anne CROFT,3:34:09,Female,218
651,649,Owen PIPER,3:34:11,Male,433
652,330,Jen MCAULEY,3:34:24,Female,219
653,500,Pamela FROST,3:34:34,Female,220
654,490,Adam HOUGH,3:34:59,Male,434
655,325,Matt ALLISON,3:34:59,Male,435
656,762,Lea FINCH,3:35:30,Female,221
657,749,Julie ELLETT,3:35:34,Female,222
658,661,Virginia MITSCH,3:35:37,Female,223
659,310,Janette LAVER,3:35:55,Female,224
660,486,Candice O'BRIEN,3:36:05,Female,225
661,178,Michael MCNAMARA,3:36:11,Male,436
662,549,Pandora HOPE,3:36:18,Female,226
663,239,Naomi EAGAR,3:36:27,Female,227
664,240,Josh DE GRAAF,3:36:27,Male,437
665,337,Matt HEVERN,3:36:38,Male,438
666,47,Tim NEWMAN,3:36:41,Male,439
667,675,Bradley BOWMAN,3:36:53,Male,440
668,49,Simon KELLEY,3:37:20,Male,441
669,66,Guthrie BOYD,3:37:39,Male,442
670,873,Tim SMITH,3:37:41,Male,443
671,914,Matthew KING,3:37:41,Male,444
672,252,Emeline HERBRETEAU,3:38:19,Female,228
673,251,Paul MEADE,3:38:25,Male,445
674,788,David BOULTON,3:38:47,Male,446
675,508,Glenn ROWLANDS,3:38:54,Male,447
676,296,Emilio CANO,3:38:57,Male,448
677,823,Cally JETSON,3:39:01,Female,229
678,397,Maxine TREMBATH,3:39:01,Female,230
679,157,Shelley BOURKE,3:39:50,Female,231
680,63,Sonia FOLEY,3:39:58,Female,232
681,722,Roslyn KENNEDY,3:40:18,Female,233
682,177,Rosemary MCNAMARA,3:40:35,Female,234
683,141,Rechelle CLAY,3:40:37,Female,235
684,578,Catherine TAYLER,3:40:55,Female,236
685,867,Anita PELACCHI,3:41:04,Female,237
686,53,Helen MYALL,3:41:20,Female,238
687,699,Heather TAYLOR,3:41:50,Female,239
688,6,Melissa GRIGG,3:41:51,Female,240
689,16,Caroline ROSENBERG,3:41:51,Female,241
690,429,Chris REILLY,3:42:01,Male,449
691,680,Tom IBBOTT,3:42:15,Male,450
692,900,Katie BLAMPIED,3:42:15,Female,242
693,574,Kathryn GRIFFITHS,3:42:26,Female,243
694,289,Zoe LECHTE,3:42:48,Female,244
695,408,Rachel GORDON,3:42:59,Female,245
696,673,Joan EDWARDS,3:43:11,Female,246
697,24,Paul HOOPER,3:43:11,Male,451
698,791,Melanie FIDLER,3:43:21,Female,247
699,792,Eiko ANDERSON-TURNLEY,3:43:21,Female,248
700,839,Ian SWANN,3:43:49,Male,452
701,78,John ROSKAM,3:43:50,Male,453
702,93,Sue SCOTT,3:43:59,Female,249
703,167,Mandy PARFITT,3:44:11,Female,250
704,626,Jeff MORUNGA,3:44:17,Male,454
705,610,Markus PRESCH,3:45:43,Male,455
706,189,Rhonda STAFFORD,3:46:32,Female,251
707,332,Andrew MOSEY,3:46:46,Male,456
708,597,Zoe GEYER,3:46:57,Female,252
709,198,Melissa DEWHURST,3:47:03,Female,253
710,207,Kathie OSBORNE,3:47:03,Female,254
711,595,Keith MCINTOSH,3:48:05,Male,457
712,394,Lionel HOLT,3:48:31,Female,255
713,388,Jennifer LOCKE,3:49:48,Female,256
714,389,Jenelle HARTMAN,3:49:48,Female,257
715,855,Christy BARNES,3:50:13,Female,258
716,807,Peter VLAHANDREAS,3:50:35,Male,458
717,837,Brett MACKENZIE,3:50:36,Male,459
718,387,Andrew RYAN,3:50:47,Male,460
719,386,Brad RYAN,3:50:47,Male,461
720,111,Rohan DAY,3:50:48,Male,462
721,404,Pauline BAUDINETTE,3:52:02,Female,259
722,68,Ed COCHRAN,3:52:21,Male,463
723,761,Peter MURPHY,3:52:23,Male,464
724,300,Chris LINK,3:53:14,Male,465
725,742,Emma DEAN,3:53:35,Female,260
726,576,Dirk VAN DER GAAG,3:54:18,Male,466
727,527,Bruce STANDFIELD,3:54:52,Male,467
728,893,Rene SHOOLMAN,3:55:24,Female,261
729,345,Nicola CULLEN,3:55:36,Female,262
730,319,Gerard CULLEN,3:55:39,Male,468
731,341,Charlotte Jane AMOS,3:56:08,Female,263
732,323,Wendy THOMAS,3:56:10,Female,264
733,605,Margaret MOTHERWELL,3:57:04,Female,265
734,79,Claire HART,3:57:16,Female,266
735,226,Kate DAVEY,3:57:17,Female,267
736,691,Bob BICKET,3:57:56,Male,469
737,70,Brian GLOVER,3:59:04,Male,470
738,467,Deborah CHRISTIE,3:59:42,Female,268
739,612,Sally HOWELLS,3:59:55,Female,269
740,692,Alona GRANTHAM,4:00:18,Female,270
741,632,Angie KENT,4:01:18,Female,271
742,466,Brenda HUTCHINSON,4:03:23,Female,272
743,494,Scott KNABEL,4:06:28,Male,471
744,362,Ian HOAD,4:07:33,Male,472
745,740,Christopher MCCABE,4:10:18,Male,473
746,536,Paula PETTINGILL,4:11:01,Female,273
747,897,Bianca DRIEBERG,4:16:17,Female,274
748,268,Patrizia CARRARINI,4:16:38,Female,275
749,556,Wendy CREBBIN,4:17:48,Female,276
750,51,Rebecca BRADFORD,4:17:54,Female,277
751,297,Marrie DEN BREEMS,4:25:05,Female,278
752,137,Yvonne WARD,4:39:24,Female,279
753,710,Colin BAILEY,4:48:27,Male,474
