POS,NAME,BIB,TIME,CATEG,CATEGPOS,GENDER,GENDERPOS
1,Shane KEDDIE,410,01:37:18,36-55,1,Male,1
2,Matthew ZONNEVELDT,308,01:40:58,21-35,1,Male,2
3,Ellie O'KANE,346,01:41:25,21-35,1,Female,1
4,Oliver PORCEDDU,360,01:44:24,20&Under,1,Male,3
5,Ryan DODSON,437,01:44:28,21-35,2,Male,4
6,Nigel MUSCROFT,380,01:45:29,36-55,2,Male,5
7,Fergus KOOCHEW,484,01:46:09,36-55,3,Male,6
8,Chris WHITE,254,01:47:38,21-35,3,Male,7
9,Martin SPITERI,273,01:48:03,36-55,4,Male,8
10,Harriet SMITH,390,01:48:48,21-35,2,Female,2
11,John HOWLEY,387,01:51:32,21-35,4,Male,9
12,Jack HOCKLEY,434,01:51:34,20&Under,2,Male,10
13,Sonia O'SULLIVAN,401,01:51:48,36-55,1,Female,3
14,Peter COLLIER,372,01:53:34,21-35,5,Male,11
15,Andy TURNER,326,01:53:37,21-35,6,Male,12
16,Matt SZYMCZAK,316,01:53:43,36-55,5,Male,13
17,Tim ALBISTON,364,01:53:56,21-35,7,Male,14
18,Todd BROWN,277,01:54:51,21-35,8,Male,15
19,Jarrod ZDRZALKA,397,01:56:10,36-55,6,Male,16
20,Loretta MCGRATH,429,01:57:10,36-55,2,Female,4
21,Niamh O'REILLY,268,01:58:00,36-55,3,Female,5
22,Ricky LEYONHJELM,457,01:58:27,21-35,9,Male,17
23,Brooke WILLIAMS,453,01:58:48,21-35,3,Female,6
24,Nicolas NEWCOMB,314,01:58:59,21-35,10,Male,18
25,James ATKINSON,231,01:59:51,36-55,7,Male,19
26,Zachary ANSTEE,367,02:00:02,36-55,8,Male,20
27,Edward POLK,424,02:00:27,21-35,11,Male,21
28,Tony DESAILLY,286,02:00:39,36-55,9,Male,22
29,Jak LYNCH,389,02:00:41,21-35,12,Male,23
30,Sam HICKINGBOTHAM,306,02:00:53,36-55,10,Male,24
31,Mark HUDSON,426,02:01:39,36-55,11,Male,25
32,Hugh MCMANUS,335,02:01:42,21-35,13,Male,26
33,Stephane BRISSON,285,02:01:53,36-55,12,Male,27
34,Dan BILLING,383,02:02:46,36-55,13,Male,28
35,Glenn LITTLE,425,02:02:57,21-35,14,Male,29
36,Kristen HARRIS,370,02:03:36,36-55,14,Male,30
37,Nicholas SIMPSON,476,02:03:56,36-55,15,Male,31
38,Daniel LADIGES,477,02:04:05,21-35,15,Male,32
39,Christophe LEFEVRE,404,02:04:10,36-55,16,Male,33
40,Travis BECKLEY,239,02:04:11,21-35,16,Male,34
41,Tom PATON,305,02:04:13,36-55,17,Male,35
42,Brendan DRAKE,471,02:04:40,36-55,18,Male,36
43,Caitlin PERKINS,361,02:04:45,21-35,4,Female,7
44,Jake BRESNEHAN,362,02:04:45,21-35,17,Male,37
45,Ryan CREEK,230,02:04:46,21-35,18,Male,38
46,Daniel VINKO,281,02:04:46,36-55,19,Male,39
47,Joel MALONE,391,02:04:53,21-35,19,Male,40
48,Bonnie KOHNERT,315,02:05:06,21-35,5,Female,8
49,Tim RAMM,300,02:06:08,36-55,20,Male,41
50,Matt PEARCE,416,02:06:18,21-35,20,Male,42
51,Martin PAL,467,02:06:29,21-35,21,Male,43
52,Felicia BELL,354,02:07:25,21-35,6,Female,9
53,Adam SAW,242,02:07:40,21-35,22,Male,44
54,Daniel PORCEDDU,359,02:08:04,36-55,21,Male,45
55,Lillian ROMANO,469,02:08:13,21-35,7,Female,10
56,Michael GALLASCH,465,02:08:35,36-55,22,Male,46
57,Chris RUNTING,405,02:08:58,36-55,23,Male,47
58,Pete GARTHWAITE,378,02:09:25,21-35,23,Male,48
59,Wendy CONWAY,293,02:09:46,21-35,8,Female,11
60,Monica HOSE,322,02:09:59,36-55,4,Female,12
61,Lucy SPANSWICK,323,02:09:59,36-55,5,Female,13
62,James CAGLIARINI,226,02:10:03,21-35,24,Male,49
63,Alf BLUCH,227,02:10:14,56-69,1,Male,50
64,Annette VAN ROOYEN,413,02:10:23,36-55,6,Female,14
65,Des POKE,446,02:11:24,36-55,24,Male,51
66,Damien COUTTS,488,02:11:51,21-35,25,Male,52
67,Kate VINNICOMBE,374,02:12:08,21-35,9,Female,15
68,Richard RAHDON,459,02:12:13,36-55,25,Male,53
69,Katharine RAHDON,460,02:12:13,36-55,7,Female,16
70,Anthony ALTMAN,454,02:12:25,36-55,26,Male,54
71,Eli HAYES,479,02:13:05,21-35,10,Female,17
72,Paul STASZYC,399,02:13:36,21-35,26,Male,55
73,James TIMOTHY,487,02:13:48,21-35,27,Male,56
74,Justin JEFFERY,442,02:14:17,21-35,28,Male,57
75,Benjamin JEEVES,255,02:14:26,36-55,27,Male,58
76,Matt PETERSEN,228,02:14:48,36-55,28,Male,59
77,Paul BYRNE,249,02:14:50,36-55,29,Male,60
78,Anthea REID,298,02:14:52,36-55,8,Female,18
79,Helena CAIRNEY,366,02:15:11,21-35,11,Female,19
80,Sabine MILLER,403,02:15:11,21-35,12,Female,20
81,Sarah CAMPBELL,447,02:15:11,21-35,13,Female,21
82,Michael KIRKMAN,257,02:15:12,36-55,30,Male,61
83,Kien UNG,299,02:15:52,36-55,31,Male,62
84,Geoff WIFFEN,218,02:15:55,36-55,32,Male,63
85,Michelle KEOGH,455,02:16:26,36-55,9,Female,22
86,Stuart CHRISTIE,223,02:16:29,36-55,33,Male,64
87,Alan GREEN,420,02:17:18,56-69,2,Male,65
88,Peter SOMERVILLE,343,02:18:12,36-55,34,Male,66
89,Justine WHITE,297,02:18:18,21-35,14,Female,23
90,Natalie METHVEN,330,02:19:15,21-35,15,Female,24
91,Sam CORREIA,485,02:19:16,21-35,29,Male,67
92,Luke MCMAHON,444,02:19:33,21-35,30,Male,68
93,Robert FIEVEZ,358,02:19:35,21-35,31,Male,69
94,Kate COTTER,481,02:19:50,21-35,16,Female,25
95,Cassandra GASH,480,02:20:03,21-35,17,Female,26
96,Kylie ROYAL,385,02:20:21,21-35,18,Female,27
97,Kelvin ADAMS,409,02:20:22,36-55,35,Male,70
98,Nick MADDEN,489,02:20:32,36-55,36,Male,71
99,Felicity HARROP,235,02:20:51,36-55,10,Female,28
100,Belinda COOK,284,02:20:52,36-55,11,Female,29
101,Janice MARSTON,260,02:20:54,36-55,12,Female,30
102,Courtney BLOOD,473,02:20:58,36-55,13,Female,31
103,Alison TJHIA,450,02:21:01,21-35,19,Female,32
104,Justin BENCI,217,02:21:33,36-55,37,Male,72
105,Joanne TREMONTI,440,02:21:41,21-35,20,Female,33
106,Duncan THOMAS,430,02:21:42,36-55,38,Male,73
107,Tessa DRAGT,267,02:21:46,21-35,21,Female,34
108,Jessica GIUDICE,310,02:21:55,21-35,22,Female,35
109,Fergal HAVLIN,244,02:22:22,21-35,32,Male,74
110,Becky CATTO-SMITH,396,02:23:33,21-35,23,Female,36
111,Jorgen PEETERS,376,02:23:53,36-55,39,Male,75
112,Andrew HEDDING,204,02:24:10,36-55,40,Male,76
113,Nigel DUNN,280,02:24:32,36-55,41,Male,77
114,Melinda JACOBSEN,296,02:24:33,36-55,14,Female,37
115,Bec READ,452,02:24:42,36-55,15,Female,38
116,Natalie ROCHE,365,02:24:50,21-35,24,Female,39
117,Elizabeth WELDON,448,02:24:51,21-35,25,Female,40
118,Sarah COLMAN,406,02:24:52,21-35,26,Female,41
119,Joshua EDWARDS,419,02:25:10,21-35,33,Male,78
120,Lucas WINTELS,411,02:25:37,36-55,42,Male,79
121,Sarah WILLET,412,02:25:37,36-55,16,Female,42
122,Toby CHANDLER,243,02:26:08,21-35,34,Male,80
123,Carole MCGREGOR,382,02:26:36,36-55,17,Female,43
124,Wendy STIBBE,234,02:26:39,36-55,18,Female,44
125,Derek LEUNG,451,02:26:55,21-35,35,Male,81
126,Moira CHALK,216,02:27:12,36-55,19,Female,45
127,James BOWEN,458,02:28:47,21-35,36,Male,82
128,Warren HOLST,271,02:29:16,36-55,43,Male,83
129,Liz SEFTON,384,02:30:13,36-55,20,Female,46
130,Rachael NUSKE,357,02:30:28,21-35,27,Female,47
131,Tim MORDAUNT,433,02:31:06,36-55,44,Male,84
132,Dwayne BOURKE,224,02:31:28,36-55,45,Male,85
133,Narelle HOWES,468,02:31:44,36-55,21,Female,48
134,Hamish DEERY,456,02:31:45,36-55,46,Male,86
135,Jacqui OKEEFE,331,02:31:52,21-35,28,Female,49
136,Gabrielle HOGAN,373,02:31:53,21-35,29,Female,50
137,Gemma DODSON,436,02:32:34,21-35,30,Female,51
138,Thea BLANK,400,02:32:38,21-35,31,Female,52
139,Simon MADDEN,317,02:33:23,36-55,47,Male,87
140,Kerry CAMPBELL,307,02:34:17,36-55,22,Female,53
141,Matilda IGLESIAS,214,02:34:45,21-35,32,Female,54
142,Annette DEVEREAUX,247,02:34:46,36-55,23,Female,55
143,John MAGNALL,301,02:35:15,36-55,48,Male,88
144,Tom KENNAN,443,02:36:19,36-55,49,Male,89
145,Tatiana FARLEY,470,02:36:20,21-35,33,Female,56
146,Heidi VESPER,246,02:37:25,21-35,34,Female,57
147,Robbie MOLONEY,291,02:37:30,36-55,24,Female,58
148,Louise WILD,233,02:37:49,36-55,25,Female,59
149,Linda CORNTHWAITE,262,02:38:20,36-55,26,Female,60
150,Kylie PUMMEROY,220,02:38:28,36-55,27,Female,61
151,Robyn HUGHES,432,02:38:31,56-69,1,Female,62
152,Paul BAN,337,02:38:43,56-69,3,Male,90
153,Bronwyn COHEN,435,02:38:43,36-55,28,Female,63
154,Peter BURNHAM,483,02:38:54,56-69,4,Male,91
155,Martin DEAN,203,02:39:08,36-55,50,Male,92
156,Lisa MILLS,250,02:39:13,36-55,29,Female,64
157,Cameron MERRY,295,02:39:13,36-55,51,Male,93
158,Nicci MARRIS,294,02:39:15,36-55,30,Female,65
159,Angie LIE,202,02:39:16,21-35,35,Female,66
160,Penelope LOORHAM,328,02:39:21,36-55,31,Female,67
161,Dominic KAUTER,313,02:39:28,21-35,37,Male,94
162,Erin STOCK,241,02:39:54,21-35,36,Female,68
163,Angela KAUTER,312,02:40:03,36-55,32,Female,69
164,Amy VORRATH,292,02:40:17,36-55,33,Female,70
165,Penny BECKWORTH,303,02:41:28,36-55,34,Female,71
166,Michelle GROCOCK,332,02:42:50,36-55,35,Female,72
167,Michelle MORRISSEY,236,02:43:35,36-55,36,Female,73
168,Craig MILES,408,02:44:19,21-35,38,Male,95
169,Sharon HOCKLEY,287,02:44:35,36-55,37,Female,74
170,Kylie CALDERWOOD,333,02:44:46,36-55,38,Female,75
171,Emily STOKES,276,02:44:54,21-35,37,Female,76
172,Jeremy KEMP,427,02:45:05,36-55,52,Male,96
173,Grainne MULLANEY,363,02:45:20,21-35,38,Female,77
174,Charlotte HIATT,334,02:45:21,21-35,39,Female,78
175,Varena LYELL,414,02:45:22,36-55,39,Female,79
176,Stphen DRAKE,415,02:45:56,36-55,53,Male,97
177,Linda BLACK,381,02:46:46,36-55,40,Female,80
178,Rachael BROWN,472,02:47:30,21-35,40,Female,81
179,Tara WHITE,393,02:47:31,36-55,41,Female,82
180,David SPELMAN,240,02:47:59,21-35,39,Male,98
181,Fiona LONG,329,02:48:18,36-55,42,Female,83
182,Anthea MITCHELL,351,02:49:12,21-35,41,Female,84
183,Morgan PECH,336,02:49:19,21-35,40,Male,99
184,Georgia CROPPER,347,02:49:20,21-35,42,Female,85
185,Cheryl SCHNEIDER,341,02:49:25,21-35,43,Female,86
186,Rebecca MARKEY,439,02:49:56,36-55,43,Female,87
187,Derek DAWKINS,478,02:51:03,36-55,54,Male,100
188,Alison FENTON,339,02:51:27,36-55,44,Female,88
189,Tania SMITH,219,02:52:40,36-55,45,Female,89
190,Catherine MOLLER,221,02:52:44,36-55,46,Female,90
191,Kate HANCKEL,355,02:53:51,36-55,47,Female,91
192,Christopher PERRY,441,02:54:12,36-55,55,Male,101
193,Lyndon RUSSELL,311,02:54:14,36-55,56,Male,102
194,Alessandro DE ROSA,222,02:54:49,36-55,57,Male,103
195,Freya FRANKLIN,225,02:55:05,36-55,48,Female,92
196,Christina AITKEN,368,02:55:21,36-55,49,Female,93
197,Peter SHAW,386,02:55:41,36-55,58,Male,104
198,Erita GARTHWAITE,379,02:56:41,21-35,44,Female,94
199,Kate WHYMAN,348,02:56:48,36-55,50,Female,95
200,Louise BRAY,461,02:56:52,36-55,51,Female,96
201,Rachel TANNER,466,02:56:52,36-55,52,Female,97
202,Kathryn GRIFFITHS,253,02:57:26,21-35,45,Female,98
203,Maddie SANDALL,266,02:57:31,21-35,46,Female,99
204,Kate MCMAHON,445,02:57:48,21-35,47,Female,100
205,Ella BOUMAN,375,02:58:45,21-35,48,Female,101
206,Sharnie MCKENNA,377,02:59:01,36-55,53,Female,102
207,Matt HARTIGAN,325,02:59:11,36-55,59,Male,105
208,Belle DONALD,474,02:59:48,36-55,54,Female,103
209,Kellie MARTIN,272,03:00:14,21-35,49,Female,104
210,Margaret Dunn DUNN,388,03:00:35,56-69,2,Female,105
211,Rachella BIRCH-SAMIOS,431,03:00:36,36-55,55,Female,106
212,Meredith STRICKLAND,395,03:00:49,21-35,50,Female,107
213,Jane KAHLE,422,03:01:40,21-35,51,Female,108
214,Zoe MORRISSEY,237,03:02:46,20&Under,1,Female,109
215,Michael WATTS,353,03:03:25,36-55,60,Male,106
216,Felicity SALKELD,265,03:03:33,36-55,56,Female,110
217,Jane CURRIE,256,03:04:43,21-35,52,Female,111
218,Larnie HEWAT,463,03:06:34,20&Under,2,Female,112
219,Justine MARSHALL-OWENS,350,03:09:08,36-55,57,Female,113
220,Rachel FREARSON,324,03:09:19,36-55,58,Female,114
221,Helene CARTER,213,03:09:21,36-55,59,Female,115
222,Natalie BLUCH,209,03:10:15,36-55,60,Female,116
223,Paula PARROTTA,210,03:10:15,36-55,61,Female,117
224,Julie STANLEY,482,03:10:46,36-55,62,Female,118
225,Scott AITKEN,338,03:12:23,36-55,61,Male,107
226,Cath DANZ,264,03:16:02,36-55,63,Female,119
227,Simone ALBISTON,270,03:16:20,36-55,64,Female,120
228,Lauren SMITH,398,03:18:46,21-35,53,Female,121
229,Andrew FERRIE,290,03:19:03,36-55,62,Male,108
230,Rose CONSTANCE,252,03:19:40,56-69,3,Female,122
231,Nicole NELSON,238,03:19:41,36-55,65,Female,123
232,Toni STUBING,340,03:20:09,36-55,66,Female,124
233,Johansson EMMA,486,03:21:25,36-55,67,Female,125
234,Michelle WATSON,201,03:27:58,36-55,68,Female,126
235,Sheena MCGILL,229,03:27:58,36-55,69,Female,127
236,Jane HORNE,309,03:29:32,36-55,70,Female,128
237,Trevor SMITH,449,03:30:12,21-35,41,Male,109
238,Clodia PORTEOUS,205,03:30:33,36-55,71,Female,129
239,Shauntelle LIM,259,03:32:36,21-35,54,Female,130
240,Marie BLOOD,418,03:33:13,70+,1,Female,131
241,Joanna MAIDMENT,215,03:43:05,36-55,72,Female,132
242,Tina SWINKELS,275,03:46:39,21-35,55,Female,133
243,Tarsha CAMERON,261,03:48:58,36-55,73,Female,134
244,Mark SWINKELS,274,03:54:01,36-55,63,Male,110
245,Liam O'GRADY,278,03:56:07,36-55,64,Male,111
246,Deirdre O'GRADY,279,03:56:08,36-55,74,Female,135
247,Sarah SCHMIDT,464,03:56:14,36-55,75,Female,136
248,Daniel SWINKELS,438,03:56:44,21-35,42,Male,112
249,Richelle OLSEN,207,04:01:17,21-35,56,Female,137
250,Kathleen DULLAGHAN,211,04:28:26,21-35,57,Female,138
251,Sarah MACRAILD,212,04:28:26,21-35,58,Female,139
DNF,Jmara HOCKLEY SAMON,288,00:00:00,20&Under,,Female,
