POS,BIB,NAME,TIME,AGE,GENDER,GENDERPOS
1,383,Brett Coleman,02:08:04,41,Male,1
2,488,Matt Dore,02:10:37,,Male,2
3,348,Ron Thomas,02:13:06,44,Male,3
4,353,David Wood,02:15:35,28,Male,4
5,375,Scott Bayley,02:16:21,43,Male,5
6,323,Adrian Lazar Adler,02:17:04,35,Male,6
7,357,Daniel Haakma,02:26:24,38,Male,7
8,397,Justin Moore,02:30:47,,Male,8
9,336,Tait Ovens,02:31:41,27,Male,9
10,303,Nardine Bainbridge,02:37:08,25,Female,1
11,489,Paul Woolard,02:37:08,,Male,10
12,391,Steve Bullock,02:38:41,51,Male,11
13,380,Douglas Simpson,02:39:06,37,Male,12
14,390,Craig McPherson,02:42:53,25,Male,13
15,338,Tom Paton,02:45:19,38,Male,14
16,312,Les Corson,02:45:51,51,Male,15
17,339,Claire Phillips,02:46:48,35,Female,2
18,337,Chris Patchell,02:47:34,36,Male,16
19,398,Barny Sommerville,02:52:39,,Male,17
20,359,Kris Harris,02:53:41,42,Male,18
21,389,Emma Taylor,02:54:47,27,Female,3
22,364,Libby Williams,02:56:07,37,Female,4
23,313,Tony Desailly,02:56:07,53,Male,19
24,315,Luke Femalearrar,02:57:51,43,Male,20
25,358,Chloe Hardman,02:59:27,46,Female,5
26,341,Neil Roche,02:59:46,56,Male,21
27,324,Monica Leahy,03:00:44,32,Female,6
28,377,Cameron Baillie,03:01:03,46,Male,22
29,363,Trish Yates,03:01:20,39,Female,7
30,485,Adam Ainsley,03:02:43,,Male,23
31,335,Moses Otyek,03:03:11,43,Male,24
32,386,Kate Atkinson,03:03:28,40,Female,8
33,393,Rosa Law,03:06:11,46,Female,9
34,373,Chris Spano,03:06:56,42,Male,25
35,384,Ben Kennedy,03:08:44,31,Male,26
36,385,Shaun Marcus,03:08:45,32,Male,27
37,319,David Harrisson,03:10:28,55,Male,28
38,309,Patrick Carey,03:10:44,37,Male,29
39,330,Skye Meredith,03:14:21,29,Female,10
40,381,Jodie Darbin,03:15:13,38,Female,11
41,347,Michael Sykes,03:17:30,34,Male,30
42,374,Gayle Cowling,03:19:59,46,Female,12
43,376,Karen Robinson,03:19:59,45,Female,13
44,354,Stuart Wright,03:20:29,39,Male,31
45,351,David Watts,03:21:46,38,Male,32
46,394,Richard Thomas,03:21:46,41,Male,33
47,487,Matt Bell,03:22:57,,Male,34
48,361,Geoff Timms,03:22:57,42,Male,35
49,367,Erin Black,03:25:19,34,Female,14
50,331,Beverley Moss,03:26:23,49,Female,15
51,366,Brendan Soetekouw,03:28:11,40,Male,36
52,388,Jordan Swaney,03:28:47,24,Male,37
53,370,Ericka Swaney,03:28:47,24,Female,16
54,368,Andrew Webb,03:28:48,33,Male,38
55,387,Amanda Meggison,03:30:58,40,Female,17
56,399,Kate Patterson,03:30:58,,Female,18
57,356,Kerryn Graham,03:33:32,37,Female,19
58,329,Matt McSHane,03:33:42,34,Male,39
59,486,Wonita Mason,03:34:00,,Female,20
60,322,Kerri Jewell,03:34:42,53,Female,21
61,326,Mark Maloney,03:35:52,56,Male,40
62,302,Emilie Ashley,03:36:33,40,Female,22
63,320,Sandra Henry,03:38:50,43,Female,23
64,334,Sean O'Flynn,03:38:54,41,Male,41
65,328,Maryanne Mckenzie,03:39:03,41,Female,24
66,307,Leesa Bready,03:42:46,41,Female,25
67,349,Kathy Thurlings,03:43:56,56,Female,26
68,382,Brett James,03:49:35,39,Male,42
69,332,Waldo Nuez,03:51:15,35,Male,43
70,352,Tiffany Winchester,03:51:44,37,Female,27
71,340,Fran Pidgeon,03:51:44,44,Female,28
72,470,Mark Kani,03:54:50,,Male,44
73,343,Scott Sawyer,03:56:58,39,Male,45
74,396,Corey Henderson,03:58:30,46,Male,46
75,484,Jules Guerra,03:59:51,,Male,47
76,395,Rowan Macintosh,04:02:31,42,Male,48
77,321,Vanessa Heuser,04:02:41,42,Female,29
78,372,Nellie Awad,04:02:42,33,Female,30
79,318,Mark Giuffre,04:06:15,35,Male,49
80,317,Rebecca Femaleowlds,04:08:38,33,Female,31
81,392,Ben Jeeves,04:08:39,38,Male,50
82,346,Phil Stokes,04:08:39,43,Male,51
83,310,Sally Chapman,04:11:47,53,Female,32
84,314,Lyal Douglas,04:32:40,55,Male,52
85,365,John Femaleox,04:37:04,43,Male,53
86,345,Lucy Stabb,04:39:35,35,Female,33
87,306,Paula Boshell,04:39:35,50,Female,34
88,344,Chris Solnordal,04:40:53,50,Male,54
89,327,Nicolee Martin,04:44:58,49,Female,35
90,378,Jacinta Brown,04:55:56,38,Female,36
91,379,Michelle Brown,04:55:56,41,Female,37
92,350,Belinda Walsh,04:59:15,45,Female,38
93,308,Matthew Briggs,05:26:13,29,Male,55
94,305,Andrew Blackney,05:27:13,44,Male,56
95,371,Kirsten Maplestone,05:27:13,40,Female,39
96,325,Joanna Maidment,05:34:51,49,Female,40
