POS,BIB,NAME,TIME,CATEG,CATEGPOS,GENDER,GENDERPOS,SPEED,TOD
1,557,Ashley BENNETT,03:30:42,18-39,1,Male,1,5:51 min/km,10:30:26
2,564,Scott CHANCELLOR,03:32:42,18-39,2,Male,2,5:54 min/km,10:32:27
3,404,Robert DALTON,03:34:05,18-39,3,Male,3,5:56 min/km,10:33:50
4,551,Adam KROMKAMP,03:38:09,18-39,4,Male,4,6:03 min/km,10:37:54
5,523,Dan WHITEHEAD,03:40:51,18-39,5,Male,5,6:08 min/km,10:40:35
6,531,Dave DEANY,03:41:10,18-39,6,Male,6,6:08 min/km,10:40:59
7,480,Kellie EMMERSON,03:41:19,18-39,1,Female,1,6:08 min/km,10:41:03
8,474,Nick BRYANT,03:42:42,40-49,1,Male,7,6:11 min/km,10:42:28
9,410,Andre VAN DER WESTHUIZEN,03:46:22,18-39,7,Male,8,6:17 min/km,10:46:10
10,481,Tegyn ANGEL,03:48:07,18-39,8,Male,9,6:20 min/km,10:47:51
11,484,Derek PRENTICE,03:48:33,40-49,2,Male,10,6:20 min/km,10:48:19
12,569,Jade MERRETT,03:50:10,40-49,3,Male,11,6:23 min/km,10:49:56
13,517,Adam SAUNDERS,03:56:10,40-49,4,Male,12,6:33 min/km,10:57:19
14,518,Christopher ROBERTS,03:56:24,40-49,5,Male,13,6:33 min/km,10:56:09
15,504,Rohan MCDONALD,03:57:17,40-49,6,Male,14,6:35 min/km,10:57:08
16,459,Chris PATCHELL,03:57:24,18-39,9,Male,15,6:35 min/km,10:57:14
17,494,Ross NICHOLSON,03:58:50,40-49,7,Male,16,6:38 min/km,10:58:42
18,470,Paul TODD,04:01:05,18-39,10,Male,17,6:41 min/km,11:00:53
19,547,Charles FUNK,04:03:03,18-39,11,Male,18,6:45 min/km,11:02:49
20,533,Tameka DAY,04:04:13,18-39,2,Female,2,6:47 min/km,11:04:44
21,407,Dean JACKSON,04:04:23,50-59,1,Male,19,6:47 min/km,11:04:12
22,560,Shannon CURRAN,04:04:26,18-39,12,Male,20,6:47 min/km,11:04:57
23,507,Ryan POGUE,04:05:52,18-39,13,Male,21,6:49 min/km,11:06:59
24,548,Neil TINCKNELL,04:05:57,18-39,14,Male,22,6:49 min/km,11:06:24
25,423,Brett GODDEN,04:06:23,40-49,8,Male,23,6:50 min/km,11:06:11
26,428,Mark URQUHART,04:06:43,18-39,15,Male,24,6:51 min/km,11:06:32
27,418,Nick CIMDINS,04:09:06,18-39,16,Male,25,6:55 min/km,11:08:53
28,558,Stephen CALLAHAN,04:09:54,50-59,2,Male,26,6:56 min/km,11:09:41
29,414,Natasha FRASER,04:10:48,18-39,3,Female,3,6:58 min/km,11:10:35
30,403,Ben METCALF,04:11:24,18-39,17,Male,27,6:59 min/km,11:11:14
31,430,Shane COLEMAN,04:14:13,18-39,18,Male,28,7:03 min/km,11:15:18
32,464,Dwayne MARTIN,04:15:48,18-39,19,Male,29,7:06 min/km,11:15:39
33,513,Caroline BERTRAND,04:16:06,18-39,4,Female,4,7:06 min/km,11:15:53
34,554,Dylan PERERA,04:17:07,18-39,20,Male,30,7:08 min/km,11:16:54
35,468,Shane WINZAR,04:18:19,40-49,9,Male,31,7:10 min/km,11:18:07
36,462,Daniel HAAKMA,04:18:31,18-39,21,Male,32,7:10 min/km,11:19:01
37,539,Tom PATON,04:18:49,18-39,22,Male,33,7:11 min/km,11:19:56
38,425,Andrew MIDDLETON,04:20:52,40-49,10,Male,34,7:14 min/km,11:20:39
39,432,Chris ADAMS,04:21:06,18-39,23,Male,35,7:15 min/km,11:21:34
40,475,Matt BLASHKI,04:21:07,18-39,24,Male,36,7:15 min/km,11:21:35
41,401,Cher MARTIN,04:23:29,18-39,5,Female,5,7:19 min/km,11:23:17
42,467,Phil ACKLAND,04:23:41,40-49,11,Male,37,7:19 min/km,11:23:32
43,429,Troy BROWN,04:24:02,18-39,25,Male,38,7:20 min/km,11:23:53
44,427,Benjamin THATCHER,04:24:59,18-39,26,Male,39,7:21 min/km,11:26:03
45,415,David FRASER,04:26:20,50-59,3,Male,40,7:23 min/km,11:26:09
46,515,Thierry LAMARQUE,04:28:16,18-39,27,Male,41,7:27 min/km,11:28:04
47,566,Lachlan FRASER,04:28:29,50-59,4,Male,42,7:27 min/km,11:28:16
48,424,Jason STIRLING,04:28:34,40-49,12,Male,43,7:27 min/km,11:29:05
49,573,Simon Mentz,04:29:27,40-49,13,Male,44,7:29 min/km,11:30:31
50,511,Chris HENDERSON,04:29:39,18-39,28,Male,45,7:29 min/km,11:29:29
51,532,Trina DENNER,04:29:40,40-49,1,Female,6,7:29 min/km,11:29:30
52,568,David COOK,04:30:41,18-39,29,Male,46,7:31 min/km,11:31:49
53,452,Dan ROBERTSON,04:30:48,18-39,30,Male,47,7:31 min/km,11:31:14
54,417,Peter MITCHELL,04:31:28,50-59,5,Male,48,7:32 min/km,11:31:15
55,524,Helen DURAND,04:31:30,18-39,6,Female,7,7:32 min/km,11:31:17
56,534,Lee PENFOLD,04:31:30,40-49,14,Male,49,7:32 min/km,11:31:55
57,530,Stephen EUDEY,04:34:27,18-39,31,Male,50,7:37 min/km,11:35:39
58,482,Ricardo COSTA,04:34:52,18-39,32,Male,51,7:38 min/km,11:34:43
59,400,Mark SWINKELS,04:34:53,40-49,15,Male,52,7:38 min/km,11:34:39
60,466,Bruce MILLER,04:35:58,40-49,16,Male,53,7:39 min/km,11:36:26
61,521,Aaron WONG,04:36:44,18-39,33,Male,54,7:41 min/km,11:37:15
62,505,Marcus PAIN,04:37:05,18-39,34,Male,55,7:41 min/km,11:37:30
63,529,Christian MORF,04:37:10,18-39,35,Male,56,7:41 min/km,11:38:18
64,508,Paul MARTIN,04:38:11,40-49,17,Male,57,7:43 min/km,11:37:58
65,483,Zach CHINNERY,04:39:50,18-39,36,Male,58,7:46 min/km,11:40:18
66,461,Kylie CARMICHAEL,04:42:15,40-49,2,Female,8,7:50 min/km,11:42:47
67,453,Jamie SMITH,04:43:42,18-39,37,Male,59,7:52 min/km,11:44:54
68,541,Chris JOHNSTONE,04:44:15,18-39,38,Male,60,7:53 min/km,11:44:03
69,563,Georgette MUNGCAL,04:44:19,40-49,3,Female,9,7:53 min/km,11:44:07
70,421,Eugene LUGG,04:46:46,18-39,39,Male,61,7:57 min/km,11:47:49
71,435,Andrew SMITH,04:46:46,18-39,40,Male,62,7:57 min/km,11:47:48
72,501,Karina PASCOE,04:48:52,18-39,7,Female,10,8:01 min/km,11:49:20
73,512,John EVERETT,04:49:06,40-49,18,Male,63,8:01 min/km,11:49:37
74,522,Mark ARNOLD,04:50:18,50-59,6,Male,64,8:03 min/km,11:50:43
75,416,Ron TAIT,04:51:18,40-49,19,Male,65,8:05 min/km,11:51:46
76,444,Andy PAYNE,04:51:19,40-49,20,Male,66,8:05 min/km,11:53:26
77,538,Andrew COWELL,04:52:55,50-59,7,Male,67,8:08 min/km,11:54:04
78,442,Ben HUTCHISON,04:53:03,18-39,41,Male,68,8:08 min/km,11:54:59
79,509,Matt BOWKER,04:54:16,40-49,21,Male,69,8:10 min/km,11:56:14
80,422,Chris SPANO,04:55:07,40-49,22,Male,70,8:11 min/km,11:57:12
81,450,Prasanna SRITHARAN,04:55:26,18-39,42,Male,71,8:12 min/km,11:56:38
82,498,Diana DUBELAAR,04:57:30,40-49,4,Female,11,8:15 min/km,11:57:56
83,491,Isobel ROSS,04:57:46,40-49,5,Female,12,8:16 min/km,11:58:16
84,499,Simon TOLSTRUP,04:57:48,18-39,43,Male,72,8:16 min/km,11:58:19
85,411,Tony O'CONNELL,04:58:36,40-49,23,Male,73,8:17 min/km,11:59:47
86,545,Rosa LAW,04:59:07,40-49,6,Female,13,8:18 min/km,11:58:55
87,434,Cassandra GASH,04:59:49,18-39,8,Female,14,8:19 min/km,12:01:47
88,489,Jon BURCHELL,05:00:37,18-39,44,Male,74,8:21 min/km,12:01:09
89,543,Warwick KING,05:01:32,50-59,8,Male,75,8:22 min/km,12:02:01
90,458,Louise CROSSLEY,05:01:46,18-39,9,Female,15,8:22 min/km,12:02:13
91,465,John MCCREDDEN,05:04:39,40-49,24,Male,76,8:27 min/km,12:05:51
92,514,Daniel NEAVE,05:05:37,18-39,45,Male,77,8:29 min/km,12:07:31
93,555,Sarah MURPHY,05:05:39,40-49,7,Female,16,8:29 min/km,12:06:07
94,412,Samantha BROWN,05:06:05,18-39,10,Female,17,8:30 min/km,12:06:30
95,436,Brad TILLEY,05:06:41,18-39,46,Male,78,8:31 min/km,12:08:42
96,525,Pau ALBOUY,05:06:57,18-39,11,Female,18,8:31 min/km,12:08:03
97,540,Andrew GOGOS,05:06:57,18-39,47,Male,79,8:31 min/km,12:08:03
98,447,Tom CULLUM,05:09:02,18-39,48,Male,80,8:35 min/km,12:10:11
99,559,Eddy HILL,05:09:02,40-49,25,Male,81,8:35 min/km,12:10:11
100,457,Skye MEREDITH,05:09:24,18-39,12,Female,19,8:35 min/km,12:10:43
101,516,Matt HOSKING,05:09:24,18-39,49,Male,82,8:35 min/km,12:10:43
102,528,Geoff TIMMS,05:10:30,40-49,26,Male,83,8:37 min/km,12:12:26
103,443,Michael JOHN,05:10:44,50-59,9,Male,84,8:37 min/km,12:11:52
104,490,Paul WATKINS,05:11:16,40-49,27,Male,85,8:38 min/km,12:11:48
105,526,Carolyn FARRAR,05:11:37,18-39,13,Female,20,8:39 min/km,12:12:44
106,472,Daniel SHORT,05:12:08,18-39,50,Male,86,8:40 min/km,12:12:36
107,520,Lesley LIKENS,05:13:54,40-49,8,Female,21,8:43 min/km,12:14:58
108,565,Daniele FOTI,05:14:38,18-39,51,Male,87,8:44 min/km,12:16:38
109,553,Andy GAZE,05:17:46,40-49,28,Male,88,8:49 min/km,12:19:41
110,476,Natalie LESTER,05:18:05,18-39,14,Female,22,8:50 min/km,12:18:32
111,445,Will CHAPMAN,05:18:31,18-39,52,Male,89,8:50 min/km,12:20:32
112,556,Raj SAMRAI,05:24:29,50-59,10,Male,90,9:00 min/km,12:26:25
113,567,Joseph CIBERLIN,05:31:50,50-59,11,Male,91,9:13 min/km,12:33:09
114,471,Richard MATISON,05:33:32,40-49,29,Male,92,9:15 min/km,12:33:20
115,562,Sue O'BRIEN,05:35:28,50-59,1,Female,23,9:19 min/km,12:35:54
116,561,Andrew O'BRIEN,05:35:29,50-59,12,Male,93,9:19 min/km,12:35:55
117,496,Rachel LOBBAN,05:38:18,18-39,15,Female,24,9:23 min/km,12:39:21
118,433,Jason WILLIAMS,05:41:00,40-49,30,Male,94,9:28 min/km,12:42:57
119,409,Andrea JACKSON,05:41:24,50-59,2,Female,25,9:29 min/km,12:42:38
120,446,Michelle PAYNE,05:43:47,18-39,16,Female,26,9:32 min/km,12:45:54
121,406,Brendan SOETEKOUW,05:44:37,40-49,31,Male,95,9:34 min/km,12:46:37
122,413,Gavin MCCLEISH,05:44:39,18-39,53,Male,96,9:34 min/km,12:46:37
123,575,Sophie Mccleish,05:44:41,18-39,17,Female,27,9:34 min/km,12:46:37
124,492,Erin BLACK,05:46:58,18-39,18,Female,28,9:38 min/km,12:49:03
125,519,Bronwyn LAW,05:47:22,18-39,19,Female,29,9:38 min/km,12:49:21
126,402,Peter SOUTHON,05:49:02,18-39,54,Male,97,9:41 min/km,12:50:14
127,454,D Lynn WILLIAMS,05:53:21,60-69,1,Female,30,9:48 min/km,12:55:28
128,546,Catherine DICKSON,05:53:51,40-49,9,Female,31,9:49 min/km,12:55:56
129,493,Kate CORNER,05:54:09,18-39,20,Female,32,9:50 min/km,12:55:12
130,469,David HUGHES,05:57:00,40-49,32,Male,98,9:55 min/km,12:59:06
131,535,Peter DEARAUGO,05:58:37,40-49,33,Male,99,9:57 min/km,13:00:32
132,503,Kelly MCLEOD,06:04:07,40-49,10,Female,33,10:06 min/km,13:06:03
133,497,Martha ALLEN-BYATT,06:07:16,18-39,21,Female,34,10:12 min/km,13:08:25
134,549,Adam CHAPMAN,06:19:13,40-49,34,Male,100,10:32 min/km,13:21:15
135,477,Clive VOGEL,06:29:45,60-69,1,Male,101,10:49 min/km,13:30:52
136,473,Deb SHARP,06:31:10,18-39,22,Female,35,10:51 min/km,13:31:37
137,502,Toni STUBING,06:33:51,50-59,3,Female,36,10:56 min/km,13:35:01
138,506,Mingwei SONG,06:34:34,18-39,55,Male,102,10:57 min/km,13:36:32
139,440,Moira WILSON,06:36:20,18-39,23,Female,37,11:00 min/km,13:37:27
140,405,Catherine BURNS,06:36:57,40-49,11,Female,38,11:01 min/km,13:37:26
141,419,Gayle COWLING,06:53:29,40-49,12,Female,39,11:29 min/km,13:53:54
