POS,TIME,BIB,NAME,GENDER,GENDERPOS
1,2:08:59,333,Francesco Ciancio,Male,1
2,2:14:10,309,Mark Corbyn,Male,2
3,2:17:47,386,Brad Fuller,Male,3
4,2:23:22,367,Julian Arnold,Male,4
5,2:26:40,419,Glenn Drew,Male,5
6,2:29:35,323,Thierry Lamarque,Male,6
7,2:30:07,418,Adam Watson,Male,7
8,2:33:16,404,Naomi Rands,Female,1
9,2:33:19,336,Cecily Butler,Female,2
10,2:35:24,388,Mark Johnston,Male,8
11,2:37:07,339,Lachlan Milne,Male,9
12,2:39:48,335,Tony Williams,Male,10
13,2:41:33,334,Clarke Carson,Male,11
14,2:43:08,310,Andrew Clarke,Male,12
15,2:43:14,325,Tom Paton,Male,13
16,2:48:31,397,Dave Angove,Male,14
17,2:52:10,422,Christian Day,Male,15
18,2:54:05,302,Narelle Lonergan,Female,3
19,2:54:21,414,Matt Smith,Male,16
20,2:55:29,380,Joe Gaspari,Male,17
21,2:55:30,412,Mark Colwell,Male,18
22,2:55:48,374,Eugene Lugg,Male,19
23,2:56:51,384,Nelroy D'Couto,Male,20
24,2:57:03,312,Michael Taylor,Male,21
25,2:57:22,400,Bec Howe,Female,4
26,2:57:59,416,Graham Challice,Male,22
27,3:00:39,364,Scott Dumesny,Male,23
28,3:01:47,390,Geoff Timms,Male,24
29,3:02:07,319,Sean Moran,Male,25
30,3:02:35,408,Danny Burgess,Male,26
31,3:03:11,306,Tom Hildebrandt,Male,27
32,3:03:59,321,Melanie Deefholts,Female,5
33,3:05:19,307,Kate Atkinson,Female,6
34,3:05:44,421,Matt D'Abbs,Male,28
35,3:07:12,327,Lucas Cowland,Male,29
36,3:07:43,382,Simon Buckley,Male,30
37,3:07:43,415,Lisa Dominguez,Female,7
38,3:09:27,354,Neil Roche,Male,31
39,3:09:38,378,Graham Jefferies,Male,32
40,3:09:38,376,Roger Box,Male,33
41,3:10:12,370,John Signorini,Male,34
42,3:13:22,343,Michael Rowe,Male,35
43,3:14:44,360,Vanessa Bolton,Female,8
44,3:19:19,399,Angelica Silva Hoces,Female,9
45,3:19:48,324,Melinda Mcleod,Female,10
46,3:22:25,326,Kate Patterson,Female,11
47,3:22:25,331,Martin Mccredden,Male,36
48,3:25:43,356,Rhianna Wik-Gamble,Female,12
49,3:26:40,320,Chrissy Good,Female,13
50,3:26:48,330,John Csorgo,Male,37
51,3:30:11,377,Fiona Hamilton,Female,14
52,3:30:23,405,Brad Couch,Male,38
53,3:30:59,318,Afy Afrouz,Female,15
54,3:31:00,383,Ross Burborough,Male,39
55,3:31:51,355,Adrian Foster,Male,40
56,3:32:35,344,Andrew Little,Male,41
57,3:33:38,379,Darren Grainger,Male,42
58,3:33:53,315,Cara Young,Female,16
59,3:34:32,372,Heather Marasco,Female,17
60,3:34:32,387,Georgia Hooper,Female,18
61,3:35:03,403,Jess Christiansen,Female,19
62,3:35:03,362,Kate McAuliffe,Female,20
63,3:36:45,347,Claire Phillips,Female,21
64,3:37:17,368,Oliver Deacon,Male,43
65,3:37:17,369,Sof Tsialtas,Male,44
66,3:41:42,373,Jean-Yves Didier,Male,45
67,3:42:39,314,Kathy Thurlings,Female,22
68,3:44:14,349,Jodie Mason,Female,23
69,3:48:23,366,Laurynda Giles,Female,24
70,3:48:36,351,Eugenie Harkin,Female,25
71,3:48:37,420,Matthew Hester,Male,46
72,3:48:55,329,Bryan Barrera,Male,47
73,3:48:58,348,Inma Sevilla Nacher,Female,26
74,3:49:03,358,Sarah Mortellaro,Female,27
75,3:49:04,357,Stephanie Mortellaro,Female,28
76,3:49:23,393,Jason Williams,Male,48
77,3:49:24,375,Mitchell Williams,Male,49
78,3:49:54,340,Jason Schembri,Male,50
79,3:50:01,410,Patrick Maple,Male,51
80,3:50:01,409,Melanie Maple,Female,29
81,3:52:56,304,Andrew Mooney,Male,52
82,4:00:46,332,Jarrod Mast,Male,53
83,4:01:47,303,Kerry Clapham,Male,54
84,4:04:26,338,Michelle Harris,Female,30
85,4:04:26,311,Michelle Acorn,Female,31
86,4:07:41,350,Megsy Robinson,Female,32
87,4:07:42,391,Chris Watt,Male,55
88,4:11:24,407,Neil Kinder,Male,56
89,4:16:20,341,Jacqueline Tol,Female,33
90,4:16:20,337,Kemi Nekvapil,Female,34
91,4:24:01,406,Heath Sedgwick,Male,57
92,4:35:57,371,Leanne Kroon,Female,35
93,4:50:49,413,Wendy Jansen,Female,36
94,4:59:10,308,Michelle Brown,Female,37
95,4:59:10,316,Jacinta Brown,Female,38
96,5:04:38,352,Marina Stumpf,Female,39
DNF,,317,Suhaila Rizal Shah,Female,
DNF,,346,Duc Do,Male,
DNF,,359,Adam Tink,Male,
