POS,BIB,NAME,TIME,CATEG,CATEGPOS,GENDER,GENDERPOS,PACE,TOD
1,658,Julian SPENCE,1:19:31,19-35,1,Male,1,3:46 min/km,12:19:42
2,416,John DUTTON,1:21:22,19-35,2,Male,2,3:51 min/km,12:21:33
3,638,Sam CROWTHER,1:22:27,19-35,3,Male,3,3:54 min/km,12:22:38
4,633,Steven SNAPE,1:23:51,19-35,4,Male,4,3:58 min/km,12:24:02
5,626,Alex HUMPHREY,1:27:26,19-35,5,Male,5,4:08 min/km,12:27:37
6,490,Anthony LYNCH,1:32:33,19-35,6,Male,6,4:23 min/km,12:32:44
7,291,Nigel MUSUROFT,1:36:56,36-55,1,Male,7,4:35 min/km,12:37:07
8,538,Darren RIVIERE,1:38:04,36-55,2,Male,8,4:38 min/km,12:38:15
9,354,James ATKINSON,1:40:32,36-55,3,Male,9,4:45 min/km,12:40:43
10,566,Martin SPITERI,1:40:59,36-55,4,Male,10,4:47 min/km,12:41:10
11,661,Brett GODDEN,1:41:04,36-55,5,Male,11,4:47 min/km,12:41:15
12,458,Craig HOWELL,1:43:49,36-55,6,Male,12,4:55 min/km,12:44:00
13,304,Naomi RANDS,1:46:20,19-35,1,Female,1,5:02 min/km,12:46:31
14,669,Niamh O'REILLY,1:47:15,36-55,1,Female,2,5:05 min/km,12:47:26
15,641,Michael SACCO,1:47:20,36-55,7,Male,13,5:05 min/km,12:47:31
16,691,Carmel TAYLOR,1:47:22,36-55,2,Female,3,5:05 min/km,12:47:33
17,620,Toby DRISCOLL,1:47:55,36-55,8,Male,14,5:06 min/km,12:48:06
18,618,Francis DICKINSON,1:47:55,36-55,9,Male,15,5:06 min/km,12:48:06
19,621,Christie EMSLEY,1:48:06,19-35,2,Female,4,5:07 min/km,12:48:17
20,579,Donald TERRIS,1:48:43,36-55,10,Male,16,5:09 min/km,12:48:54
21,484,Toniel PATON,1:49:13,19-35,3,Female,5,5:10 min/km,12:49:24
22,583,Andrew TIMMIS,1:49:37,19-35,7,Male,17,5:11 min/km,12:49:48
23,628,Ben JENKINS,1:49:43,19-35,8,Male,18,5:12 min/km,12:49:54
24,527,Tom PATON,1:50:15,36-55,11,Male,19,5:13 min/km,12:50:26
25,357,Julie AYLWARD,1:50:40,36-55,3,Female,6,5:14 min/km,12:50:51
26,612,David LIPMAN,1:50:48,19-35,9,Male,20,5:15 min/km,12:50:59
27,505,Perry JACKSON,1:50:49,19-35,10,Male,21,5:15 min/km,12:51:00
28,595,Sebastian WEBER,1:50:57,19-35,11,Male,22,5:15 min/km,12:51:08
29,637,Russell TREMAYNE,1:51:01,36-55,12,Male,23,5:15 min/km,12:51:12
30,432,Lachlan FOX,1:51:28,19-35,12,Male,24,5:16 min/km,12:51:39
31,451,Tim HENRY,1:52:18,36-55,13,Male,25,5:19 min/km,12:52:29
32,305,Chris MCDONALD,1:52:49,36-55,14,Male,26,5:20 min/km,12:53:00
33,454,Joshua HILL,1:54:00,19-35,13,Male,27,5:24 min/km,12:54:11
34,351,Tim ALBISTON,1:54:09,19-35,14,Male,28,5:24 min/km,12:54:20
35,501,Ian MCCORMICK,1:55:07,19-35,15,Male,29,5:27 min/km,12:55:18
36,390,Neil COONEY,1:55:16,19-35,16,Male,30,5:27 min/km,12:55:27
37,610,Matthew ZONNEVELDT,1:55:50,19-35,17,Male,31,5:29 min/km,12:56:01
38,606,David WOODS,1:56:42,19-35,18,Male,32,5:31 min/km,12:56:53
39,670,Michael JANSEN,1:57:20,36-55,15,Male,33,5:33 min/km,12:57:31
40,517,Jess O'BRIEN,1:58:01,19-35,4,Female,7,5:35 min/km,12:58:12
41,308,Karl PAREDES,1:58:26,19-35,19,Male,34,5:36 min/km,12:58:37
42,476,Simon LAWLOR,1:58:26,19-35,20,Male,35,5:36 min/km,12:58:37
43,312,Jed BOWTELL,1:58:30,36-55,16,Male,36,5:37 min/km,12:58:41
44,448,Stevie HALLS,1:58:55,36-55,4,Female,8,5:38 min/km,12:59:06
45,375,David BUDGE,1:59:11,56-69,1,Male,37,5:38 min/km,12:59:22
46,427,Cliona FITZPATRICK,1:59:26,19-35,5,Female,9,5:39 min/km,12:59:37
47,617,Sam BURNS,1:59:28,19-35,21,Male,38,5:39 min/km,12:59:39
48,365,Matt BELLMAN,2:00:19,19-35,22,Male,39,5:42 min/km,13:00:30
49,588,Lyndon VIRGONA,2:00:27,36-55,17,Male,40,5:42 min/km,13:00:38
50,697,Mark HORSFIELD,2:00:37,36-55,18,Male,41,5:42 min/km,13:00:48
51,425,Robert FIEVEZ,2:00:48,19-35,23,Male,42,5:43 min/km,13:00:59
52,302,Michael CASEY,2:00:55,19-35,24,Male,43,5:43 min/km,13:01:06
53,584,Chelsey TREGEAR,2:01:02,19-35,6,Female,10,5:44 min/km,13:01:13
54,560,Chris SMITH,2:01:06,19-35,25,Male,44,5:44 min/km,13:01:17
55,359,Marcelle BARNETT,2:01:47,19-35,7,Female,11,5:46 min/km,13:01:58
56,625,Angela GUY,2:01:55,19-35,8,Female,12,5:46 min/km,13:02:06
57,680,Jarred SCHAFER,2:02:10,19-35,26,Male,45,5:47 min/km,13:02:21
58,567,Clayne STEBBINGS,2:02:15,36-55,19,Male,46,5:47 min/km,13:02:26
59,307,Marc OTTENBACHER,2:03:23,19-35,27,Male,47,5:50 min/km,13:03:34
60,518,Leigh O'CONNELL,2:03:26,36-55,20,Male,48,5:51 min/km,13:03:37
61,591,Sarah WALS,2:03:48,36-55,5,Female,13,5:52 min/km,13:03:59
62,384,Nick CHAMBERS,2:04:01,19-35,28,Male,49,5:52 min/km,13:04:12
63,504,Carole MCGREGOR,2:04:28,36-55,6,Female,14,5:53 min/km,13:04:39
64,411,Thomas DORE,2:04:32,19-35,29,Male,50,5:54 min/km,13:04:43
65,686,Lindsay EVANS,2:04:48,19-35,9,Female,15,5:54 min/km,13:04:59
66,311,Andrew DAY,2:05:17,19-35,30,Male,51,5:56 min/km,13:05:28
67,565,Lucy SPANSWICK,2:05:19,36-55,7,Female,16,5:56 min/km,13:05:30
68,698,Pearse FAY,2:05:41,19-35,31,Male,52,5:57 min/km,13:05:52
69,554,John SINCLAIR,2:06:21,36-55,21,Male,53,5:59 min/km,13:06:32
70,679,Mitch WESTHEAD,2:06:38,19-35,32,Male,54,6:00 min/km,13:06:49
71,673,Dean TAYLOR,2:07:07,19-35,33,Male,55,6:01 min/km,13:07:18
72,498,Janice MARSTON,2:07:16,36-55,8,Female,17,6:01 min/km,13:07:27
73,546,Mick RUSSELL,2:07:23,36-55,22,Male,56,6:02 min/km,13:07:34
74,630,Bianca MUNDY,2:07:43,19-35,10,Female,18,6:03 min/km,13:07:54
75,645,Annabel SOUTHEY,2:07:43,19-35,11,Female,19,6:03 min/km,13:07:54
76,541,Owen ROPER,2:07:47,36-55,23,Male,57,6:03 min/km,13:07:58
77,677,Sean NEAVE,2:08:01,19-35,34,Male,58,6:04 min/km,13:08:12
78,353,Patrick ARMSTRONG,2:08:10,19-35,35,Male,59,6:04 min/km,13:08:21
79,559,Andrea SMITH,2:08:18,36-55,9,Female,20,6:04 min/km,13:08:29
80,557,Tim SMALLMAN,2:08:52,19-35,36,Male,60,6:06 min/km,13:09:03
81,397,David CRIPPS,2:09:19,36-55,24,Male,61,6:07 min/km,13:09:30
82,442,Kerryn GRAHAM,2:09:30,36-55,10,Female,21,6:08 min/km,13:09:41
83,684,Michael PORCH,2:09:32,36-55,25,Male,62,6:08 min/km,13:09:43
84,396,Chris CREELY,2:10:02,56-69,2,Male,63,6:09 min/km,13:10:13
85,313,Jamie SMITH,2:10:05,36-55,26,Male,64,6:09 min/km,13:10:16
86,696,Liz PRYDE,2:10:34,36-55,11,Female,22,6:11 min/km,13:10:45
87,434,Caroline GAVIN,2:10:37,19-35,12,Female,23,6:11 min/km,13:10:48
88,659,Tim NOLAN,2:11:18,19-35,37,Male,65,6:13 min/km,13:11:29
89,430,Andrea FLYNN,2:11:28,36-55,12,Female,24,6:13 min/km,13:11:39
90,473,Jared LARIELLE,2:12:20,19-35,38,Male,66,6:16 min/km,13:12:31
91,678,Claire MCCURDY,2:12:25,19-35,13,Female,25,6:16 min/km,13:12:36
92,395,Cate CREELY,2:12:38,36-55,13,Female,26,6:17 min/km,13:12:49
93,631,Alanna RICARDO,2:12:47,56-69,1,Female,27,6:17 min/km,13:12:58
94,654,David FRID,2:12:53,36-55,27,Male,67,6:17 min/km,13:13:04
95,478,Anthony LEACH,2:13:25,36-55,28,Male,68,6:19 min/km,13:13:36
96,555,Bronwyn SKIDMORE,2:13:25,19-35,14,Female,28,6:19 min/km,13:13:36
97,499,Brooke MASTERS,2:13:36,36-55,14,Female,29,6:19 min/km,13:13:47
98,600,Rhianna WIK-GAMBLE,2:13:56,19-35,15,Female,30,6:20 min/km,13:14:07
99,360,Daniel BARTLETT,2:14:01,36-55,29,Male,69,6:21 min/km,13:14:12
100,655,Timothy MARRIAGE,2:14:29,19-35,39,Male,70,6:22 min/km,13:14:40
101,671,Andrew WRAY,2:14:37,36-55,30,Male,71,6:22 min/km,13:14:48
102,364,Jacqueline BELL,2:14:47,36-55,15,Female,31,6:23 min/km,13:14:58
103,511,Alison MOXHAM,2:14:58,36-55,16,Female,32,6:23 min/km,13:15:09
104,613,Paul BAYLISS,2:15:10,36-55,31,Male,72,6:24 min/km,13:15:21
105,682,Neil BREWSTER,2:15:14,36-55,32,Male,73,6:24 min/km,13:15:25
106,381,Simon CASEY,2:15:16,36-55,33,Male,74,6:24 min/km,13:15:27
107,675,Samantha MCCROW,2:15:34,36-55,17,Female,33,6:25 min/km,13:15:45
108,468,Andrew KIRKBY,2:15:37,36-55,34,Male,75,6:25 min/km,13:15:48
109,401,Brady CURRAN,2:15:42,19-35,40,Male,76,6:25 min/km,13:15:53
110,309,Stephen MULDOON,2:15:43,19-35,41,Male,77,6:25 min/km,13:15:54
111,607,Sally WOODS,2:15:44,19-35,16,Female,34,6:25 min/km,13:15:55
112,619,Johnny DOYLE,2:15:48,36-55,35,Male,78,6:26 min/km,13:15:59
113,412,Ben DRAYTON,2:15:55,19-35,42,Male,79,6:26 min/km,13:16:06
114,477,Gary LE GUERN,2:15:56,36-55,36,Male,80,6:26 min/km,13:16:07
115,644,Adam PORTER,2:15:57,19-35,43,Male,81,6:26 min/km,13:16:08
116,550,Trinity SANDERSON,2:16:14,36-55,18,Female,35,6:27 min/km,13:16:25
117,475,Beth LAVERY,2:16:25,36-55,19,Female,36,6:27 min/km,13:16:36
118,531,Matt PRINCE,2:16:26,19-35,44,Male,82,6:27 min/km,13:16:37
119,683,Darren MEADE,2:16:41,36-55,37,Male,83,6:28 min/km,13:16:52
120,648,Ciara WALLACE,2:16:49,19-35,17,Female,37,6:29 min/km,13:17:00
121,647,Sean O BRIEN,2:16:51,19-35,45,Male,84,6:29 min/km,13:17:02
122,636,Kieran WILLIAMSON,2:17:45,19-35,46,Male,85,6:31 min/km,13:17:56
123,551,Russell SAUNDERS,2:18:03,36-55,38,Male,86,6:32 min/km,13:18:14
124,438,Florie GIBIER,2:18:17,19-35,18,Female,38,6:33 min/km,13:18:28
125,689,Jo CURRAN,2:18:24,36-55,20,Female,39,6:33 min/km,13:18:35
126,471,Alena KOSMIN,2:18:29,19-35,19,Female,40,6:33 min/km,13:18:40
127,492,Erin MACMULLIN,2:18:29,19-35,20,Female,41,6:33 min/km,13:18:40
128,635,David WILLIAMS,2:19:06,36-55,39,Male,87,6:35 min/km,13:19:17
129,310,Sean MULLINS,2:19:10,36-55,40,Male,88,6:35 min/km,13:19:21
130,593,Jintao WANG,2:19:14,36-55,41,Male,89,6:35 min/km,13:19:25
131,569,Daniel STOCCO,2:19:30,19-35,47,Male,90,6:36 min/km,13:19:41
132,540,Luke ROMANIN,2:19:32,19-35,48,Male,91,6:36 min/km,13:19:43
133,572,Oliver STOLTZ,2:19:33,19-35,49,Male,92,6:36 min/km,13:19:44
134,431,Rebecca FOWLDS,2:19:36,19-35,21,Female,42,6:36 min/km,13:19:47
135,571,Julie STOKES,2:19:36,36-55,21,Female,43,6:36 min/km,13:19:47
136,534,Jo READINGS,2:19:40,36-55,22,Female,44,6:37 min/km,13:19:51
137,495,Daryn MARCUS,2:19:43,36-55,42,Male,93,6:37 min/km,13:19:54
138,446,Rosalind HAINES,2:19:58,36-55,23,Female,45,6:38 min/km,13:20:09
139,526,Rachael PARKER,2:20:02,19-35,22,Female,46,6:38 min/km,13:20:13
140,692,Fiona MATHEWS,2:20:11,36-55,24,Female,47,6:38 min/km,13:20:22
141,453,Phil HICKEY,2:20:38,36-55,43,Male,94,6:39 min/km,13:20:49
142,548,Sam RYAN,2:20:40,19-35,50,Male,95,6:40 min/km,13:20:51
143,660,Jess CHRISTIANSEN,2:20:53,36-55,25,Female,48,6:40 min/km,13:21:04
144,664,Dominic KAUTER,2:21:03,19-35,51,Male,96,6:41 min/km,13:21:14
145,576,Patricia TALADRIZ,2:21:15,19-35,23,Female,49,6:41 min/km,13:21:26
146,578,Catherine TEAGUE,2:21:17,36-55,26,Female,50,6:41 min/km,13:21:28
147,570,Emily STOKES,2:21:37,19-35,24,Female,51,6:42 min/km,13:21:48
148,510,Brett MORRISON,2:22:10,36-55,44,Male,97,6:44 min/km,13:22:21
149,662,Fiona ATKINSON,2:23:02,19-35,25,Female,52,6:46 min/km,13:23:13
150,314,Fiona LONG,2:23:15,36-55,27,Female,53,6:47 min/km,13:23:26
151,524,Adam PAPANICOLOU,2:23:26,19-35,52,Male,98,6:47 min/km,13:23:37
152,561,Emma SMITH,2:23:27,19-35,26,Female,54,6:47 min/km,13:23:38
153,598,Michelle WESTON,2:23:34,36-55,28,Female,55,6:48 min/km,13:23:45
154,352,Clare ALEXANDER,2:23:49,36-55,29,Female,56,6:48 min/km,13:24:00
155,599,Stefanie WIEGNER,2:24:17,36-55,30,Female,57,6:50 min/km,13:24:28
156,392,Lucas COWLAND,2:24:24,36-55,45,Male,99,6:50 min/km,13:24:35
157,409,Kim DICKINSON,2:24:25,36-55,31,Female,58,6:50 min/km,13:24:36
158,695,Zirui WEI,2:25:40,19-35,53,Male,100,6:54 min/km,13:25:51
159,398,Leah CRIPPS,2:27:02,36-55,32,Female,59,6:58 min/km,13:27:13
160,564,Kurt SPANSWICK,2:27:19,36-55,46,Male,101,6:58 min/km,13:27:30
161,574,Darren YATES,2:27:19,36-55,47,Male,102,6:58 min/km,13:27:30
162,523,Samantha ORB,2:27:35,36-55,33,Female,60,6:59 min/km,13:27:46
163,672,Anthony SHEEDY,2:27:36,36-55,48,Male,103,6:59 min/km,13:27:47
164,665,Fiona SALTER,2:27:37,19-35,27,Female,61,6:59 min/km,13:27:48
165,515,Kelly NASH,2:27:38,19-35,28,Female,62,6:59 min/km,13:27:49
166,509,Rebecca MILES,2:28:05,36-55,34,Female,63,7:01 min/km,13:28:16
167,580,Karl THIELMANN,2:28:18,36-55,49,Male,104,7:01 min/km,13:28:29
168,422,Michelle ESDALE,2:28:19,36-55,35,Female,64,7:01 min/km,13:28:30
169,362,Kathleen BAYLISS,2:28:38,36-55,36,Female,65,7:02 min/km,13:28:49
170,487,Penelope LOORHAM,2:29:14,36-55,37,Female,66,7:04 min/km,13:29:25
171,575,Alison SUTTON,2:29:17,36-55,38,Female,67,7:04 min/km,13:29:28
172,497,Deanna MARSHALL,2:29:20,36-55,39,Female,68,7:04 min/km,13:29:31
173,300,Minh PEART-TANG,2:29:23,19-35,54,Male,105,7:04 min/km,13:29:34
174,616,Lucy BRENNAN,2:29:36,19-35,29,Female,69,7:05 min/km,13:29:47
175,443,Katherine GRAY,2:29:41,19-35,30,Female,70,7:05 min/km,13:29:52
176,528,Daniel POBJOY,2:29:42,19-35,55,Male,106,7:05 min/km,13:29:53
177,460,Jenna HUSON,2:30:00,19-35,31,Female,71,7:06 min/km,13:30:11
178,604,Lucas WINTELS,2:30:05,36-55,50,Male,107,7:06 min/km,13:30:16
179,496,Dale MARSHALL,2:30:06,36-55,51,Male,108,7:06 min/km,13:30:17
180,383,Kate CHAMBERS,2:30:14,19-35,32,Female,72,7:07 min/km,13:30:25
181,494,Melanie MAPLE,2:31:07,36-55,40,Female,73,7:09 min/km,13:31:18
182,461,Laura JOHNSEY,2:31:24,19-35,33,Female,74,7:10 min/km,13:31:35
183,303,Kate ELPHICK,2:31:39,36-55,41,Female,75,7:11 min/km,13:31:50
184,462,Erin JONES,2:31:45,36-55,42,Female,76,7:11 min/km,13:31:56
185,380,Clarke CARSON,2:31:56,36-55,52,Male,109,7:12 min/km,13:32:07
186,466,Brianna KING,2:32:12,19-35,34,Female,77,7:12 min/km,13:32:23
187,372,Kerry BROTCHIE,2:32:25,36-55,43,Female,78,7:13 min/km,13:32:36
188,529,Faye POWDERLY,2:32:37,56-69,2,Female,79,7:13 min/km,13:32:48
189,387,Bronwyn COHEN,2:32:58,36-55,44,Female,80,7:15 min/km,13:33:09
190,410,Anita DOKOZA,2:32:58,36-55,45,Female,81,7:15 min/km,13:33:09
191,436,Juliette GENTLE,2:32:59,36-55,46,Female,82,7:15 min/km,13:33:10
192,358,Paul BAN,2:33:05,56-69,3,Male,110,7:15 min/km,13:33:16
193,514,Elizabeth MUKHERJI,2:33:06,36-55,47,Female,83,7:15 min/km,13:33:17
194,449,Alana HANNAFORD,2:33:12,19-35,35,Female,84,7:15 min/km,13:33:23
195,639,Sonia GEERLINGS,2:33:21,36-55,48,Female,85,7:16 min/km,13:33:32
196,379,Natalie CANDY,2:34:23,19-35,36,Female,86,7:19 min/km,13:34:34
197,293,Nancy D'ARCY,2:35:09,36-55,49,Female,87,7:21 min/km,13:35:20
198,652,Denise SATTI,2:35:33,36-55,50,Female,88,7:22 min/km,13:35:44
199,663,Michael KAUTER,2:35:44,36-55,53,Male,111,7:22 min/km,13:35:55
200,603,Mitchell WILLIAMS,2:35:59,18&U,1,Male,112,7:23 min/km,13:36:10
201,605,Jason WONG,2:36:16,36-55,54,Male,113,7:24 min/km,13:36:27
202,694,Di WU,2:36:18,36-55,55,Male,114,7:24 min/km,13:36:29
203,388,Sue CONDON,2:36:26,36-55,51,Female,89,7:24 min/km,13:36:37
204,426,Sarah FINLEY,2:36:43,19-35,37,Female,90,7:25 min/km,13:36:54
205,653,Vickie GILLETT,2:36:46,36-55,52,Female,91,7:25 min/km,13:36:57
206,400,Chantelle CURMI,2:37:16,19-35,38,Female,92,7:27 min/km,13:37:27
207,687,Hao ZHANG,2:37:35,36-55,56,Male,115,7:28 min/km,13:37:46
208,650,Avi CHARLTON,2:38:10,36-55,53,Female,93,7:29 min/km,13:38:21
209,486,Ken LOONE,2:38:14,36-55,57,Male,116,7:29 min/km,13:38:25
210,393,Melissa COWLAND,2:38:23,36-55,54,Female,94,7:30 min/km,13:38:34
211,676,Tash CARAH,2:39:29,36-55,55,Female,95,7:33 min/km,13:39:40
212,589,Sally WALDRON,2:39:32,36-55,56,Female,96,7:33 min/km,13:39:43
213,429,Gerald FITZPATRICK,2:40:07,56-69,4,Male,117,7:35 min/km,13:40:18
214,356,Paul AUSTIN,2:40:09,56-69,5,Male,118,7:35 min/km,13:40:20
215,539,Cindy ROBINS,2:41:12,36-55,57,Female,97,7:38 min/km,13:41:23
216,685,Michelle HARRIS,2:41:32,36-55,58,Female,98,7:39 min/km,13:41:43
217,688,Meredith PRETTY,2:41:46,36-55,59,Female,99,7:40 min/km,13:41:57
218,693,Rachael MEREDITH,2:41:55,19-35,39,Female,100,7:40 min/km,13:42:06
219,592,Brendan WALSH,2:43:12,36-55,58,Male,119,7:44 min/km,13:43:23
220,445,Simon GRONOW,2:43:37,36-55,59,Male,120,7:45 min/km,13:43:48
221,402,Paul DAI,2:43:45,19-35,56,Male,121,7:45 min/km,13:43:56
222,488,Gemma LOVELL,2:44:05,19-35,40,Female,101,7:46 min/km,13:44:16
223,623,May FOX,2:44:28,19-35,41,Female,102,7:47 min/km,13:44:39
224,407,Jo DEMPSEY,2:44:32,36-55,60,Female,103,7:47 min/km,13:44:43
225,590,Troy WALLACE,2:44:43,36-55,60,Male,122,7:48 min/km,13:44:54
226,452,Larnie HEWAT,2:45:34,19-35,42,Female,104,7:50 min/km,13:45:45
227,556,Kathryn SKIDMORE,2:45:41,19-35,43,Female,105,7:51 min/km,13:45:52
228,622,Ray FARRELL,2:46:35,36-55,61,Male,123,7:53 min/km,13:46:46
229,408,Annette DEVEREAUX,2:46:36,36-55,61,Female,106,7:53 min/km,13:46:47
230,483,Ebony LILLEE,2:46:37,19-35,44,Female,107,7:53 min/km,13:46:48
231,667,Samantha MORRIS,2:46:43,36-55,62,Female,108,7:54 min/km,13:46:54
232,668,Tiffany LO,2:46:47,19-35,45,Female,109,7:54 min/km,13:46:58
233,413,Emily DUFF,2:48:02,19-35,46,Female,110,7:57 min/km,13:48:13
234,472,Vicki LANE,2:49:09,19-35,47,Female,111,8:01 min/km,13:49:20
235,481,Narissa LEUNG,2:49:09,19-35,48,Female,112,8:01 min/km,13:49:20
236,467,Amy KINNEAR,2:49:15,36-55,63,Female,113,8:01 min/km,13:49:26
237,640,Sue DUGGAN,2:50:14,36-55,64,Female,114,8:04 min/km,13:50:25
238,525,Auri PARKER,2:50:30,19-35,49,Female,115,8:04 min/km,13:50:41
239,455,Matt HORTON,2:50:32,36-55,62,Male,124,8:04 min/km,13:50:43
240,386,Kylie CHU,2:50:56,19-35,57,Male,125,8:06 min/km,13:51:07
241,690,Ishty CHOWDHURY,2:51:07,19-35,58,Male,126,8:06 min/km,13:51:18
242,542,Amanda ROWE,2:51:09,36-55,65,Female,116,8:06 min/km,13:51:20
243,440,Natasha GLEDHILL,2:51:10,19-35,50,Female,117,8:06 min/km,13:51:21
244,368,Tamara BOND,2:51:26,36-55,66,Female,118,8:07 min/km,13:51:37
245,521,Georgia OLIVER,2:51:41,18&U,1,Female,119,8:08 min/km,13:51:52
246,649,Kellie MARTIN,2:51:45,19-35,51,Female,120,8:08 min/km,13:51:56
247,469,Sharon KOMIDAR,2:52:00,36-55,67,Female,121,8:09 min/km,13:52:11
248,385,Bronwyn CHISHOLM,2:53:08,36-55,68,Female,122,8:12 min/km,13:53:19
249,536,Kylie RHOOK,2:53:43,36-55,69,Female,123,8:13 min/km,13:53:54
250,535,Dean REYNOLDS,2:53:56,36-55,63,Male,127,8:14 min/km,13:54:07
251,421,Aida ESCALL,2:54:16,36-55,70,Female,124,8:15 min/km,13:54:27
252,609,Angela YUAN,2:54:32,36-55,71,Female,125,8:16 min/km,13:54:43
253,666,Alison RADY,2:54:51,19-35,52,Female,126,8:17 min/km,13:55:02
254,382,Carina CHAMBERS,2:55:37,19-35,53,Female,127,8:19 min/km,13:55:48
255,624,Jacinta GRACEY,2:56:22,36-55,72,Female,128,8:21 min/km,13:56:33
256,681,Deb SHARP,2:56:54,36-55,73,Female,129,8:23 min/km,13:57:05
257,184,Julie SAVAGE,2:56:55,36-55,74,Female,130,8:23 min/km,13:57:06
258,522,Stella OOI,2:56:56,36-55,75,Female,131,8:23 min/km,13:57:07
259,428,Fiona FITZPATRICK,2:57:00,36-55,76,Female,132,8:23 min/km,13:57:11
260,506,Rebecca MCINTOSH,2:57:21,19-35,54,Female,133,8:24 min/km,13:57:32
261,306,Nicole O'CONNELL,2:57:24,36-55,77,Female,134,8:24 min/km,13:57:35
262,594,Sally WATSON,2:57:38,36-55,78,Female,135,8:25 min/km,13:57:49
263,597,Janet WELBURN,2:58:05,36-55,79,Female,136,8:26 min/km,13:58:16
264,370,Maree BOYLE,2:59:59,36-55,80,Female,137,8:31 min/km,14:00:10
265,700,Melissa SAPUPPO,3:01:43,36-55,81,Female,138,8:36 min/km,14:01:54
266,627,Wendy JANSEN,3:02:34,36-55,82,Female,139,8:39 min/km,14:02:45
267,646,Jessica LU,3:05:15,36-55,83,Female,140,8:46 min/km,14:05:26
268,642,Kristina CUI,3:05:17,36-55,84,Female,141,8:46 min/km,14:05:28
269,611,Tanya BAKER,3:06:02,19-35,55,Female,142,8:49 min/km,14:06:13
270,581,Chris THOMAS,3:06:57,56-69,6,Male,128,8:51 min/km,14:07:08
271,532,Steph PRUJEAN,3:08:12,36-55,85,Female,143,8:55 min/km,14:08:23
272,656,Linda VANDUYNHOVEN,3:08:12,36-55,86,Female,144,8:55 min/km,14:08:23
273,491,Joanna MACCARTHY,3:08:25,36-55,87,Female,145,8:55 min/km,14:08:36
274,586,Katherine TURNER,3:09:19,19-35,56,Female,146,8:58 min/km,14:09:30
275,568,Ebony STILL,3:10:52,19-35,57,Female,147,9:02 min/km,14:11:03
276,674,Andrea KATTULA,3:10:58,36-55,88,Female,148,9:03 min/km,14:11:09
277,450,Alice HAYNES,3:13:11,36-55,89,Female,149,9:09 min/km,14:13:22
278,418,Emily ELKHOURY,3:13:13,36-55,90,Female,150,9:09 min/km,14:13:24
279,513,Anna MUECKE,3:13:18,36-55,91,Female,151,9:09 min/km,14:13:29
280,456,Jason HOSKINS,3:13:19,36-55,64,Male,129,9:09 min/km,14:13:30
281,367,Marie BLOOD,3:14:53,70+,1,Female,152,9:14 min/km,14:15:04
282,373,Jacinta BROWN,3:19:40,36-55,92,Female,153,9:27 min/km,14:19:51
283,374,Michelle BROWN,3:19:41,36-55,93,Female,154,9:27 min/km,14:19:52
284,371,Lou BRAY,3:22:10,36-55,94,Female,155,9:34 min/km,14:22:21
285,444,Di GRIGG,3:22:10,36-55,95,Female,156,9:34 min/km,14:22:21
286,537,Mary-Anne RICHARDSON,3:22:13,36-55,96,Female,157,9:35 min/km,14:22:24
287,433,Don GARMONSWAY,3:24:42,36-55,65,Male,130,9:42 min/km,14:24:53
288,489,Judith LUNN,3:25:01,56-69,3,Female,158,9:42 min/km,14:25:12
289,299,Monica FOX,3:25:09,36-55,97,Female,159,9:43 min/km,14:25:20
290,479,Erin LEEHANE,3:26:07,36-55,98,Female,160,9:46 min/km,14:26:18
291,585,Emily TUCKER,3:26:08,19-35,58,Female,161,9:46 min/km,14:26:19
292,563,Claudia SOETEKOUW,3:29:36,18&U,2,Female,162,9:56 min/km,14:29:47
293,562,Brendan SOETEKOUW,3:29:38,36-55,66,Male,131,9:56 min/km,14:29:49
294,512,Jamie MOXHAM,3:33:28,36-55,67,Male,132,10:07 min/km,14:33:39
295,355,Lou AUGELLO,3:34:53,36-55,99,Female,163,10:11 min/km,14:35:04
296,520,Liam O'GRADY,3:42:09,36-55,68,Male,133,10:31 min/km,14:42:20
297,519,Deirdre O'GRADY,3:42:11,36-55,100,Female,164,10:31 min/km,14:42:22
298,439,Jill GILLIES,3:56:43,36-55,101,Female,165,11:13 min/km,14:56:54
299,482,Gillian LIGHT,3:56:50,36-55,102,Female,166,11:13 min/km,14:57:01
300,643,Wendy SHEN,4:12:19,36-55,103,Female,167,11:57 min/km,15:12:30
301,615,Nicole BIBER,4:21:00,36-55,104,Female,168,12:22 min/km,15:21:11
302,651,Jessica HORVAT,4:21:01,36-55,105,Female,169,12:22 min/km,15:21:12
303,377,Simone BYRNE,4:47:08,36-55,106,Female,170,13:36 min/km,15:47:19
DNF,363,Russell BAYLISS,,36-55,DNF,Male,DNF,,
DNF,530,Markus PRESCH,,36-55,DNF,Male,DNF,,
